<?xml version="1.0" standalone="no"?>
<!DOCTYPE svg PUBLIC "-//W3C//DTD SVG 1.1//EN" "http://www.w3.org/Graphics/SVG/1.1/DTD/svg11.dtd" >
<svg xmlns="http://www.w3.org/2000/svg" xmlns:xlink="http://www.w3.org/1999/xlink" version="1.1">
<metadata>
Created by FontForge 20170731 at Tue Mar 28 18:48:34 2017
 By Aleksey,,,
Copyright (c) 2017 by atrissi.com. All rights reserved.
</metadata>
<defs>
<font id="Ooredoo-Heavy" horiz-adv-x="600" >
  <font-face 
    font-family="Ooredoo Heavy"
    font-weight="900"
    font-stretch="normal"
    units-per-em="1000"
    panose-1="0 0 10 0 0 0 0 0 0 0"
    ascent="777"
    descent="-223"
    x-height="528"
    cap-height="700"
    bbox="-509 -234 1191 951.485"
    underline-thickness="50"
    underline-position="-200"
    unicode-range="U+0020-2260"
  />
<missing-glyph horiz-adv-x="500" 
d="M410 777v-1000h-317v1000h317zM333 710h-165v-33h65v-37h-66v-33h166v33h-66v37h66v33zM267 581h-100v-104h166v34h-66v70zM233 547v-36h-33v36h33zM333 450h-166v-33h66v-37h-66v-33h100v70h66v33zM333 390h-33v-66h-133v-34h166v100zM333 268h-100v-56h34v23h33v-47
h-100v80h-33v-113h166v113zM333 95h-166v-113h166v113zM300 62v-47h-100v47h100zM333 -41h-166v-33h70l-70 -47v-33h166v33h-102l70 47h32v33z" />
    <glyph glyph-name=".notdef" horiz-adv-x="500" 
d="M410 777v-1000h-317v1000h317zM333 710h-165v-33h65v-37h-66v-33h166v33h-66v37h66v33zM267 581h-100v-104h166v34h-66v70zM233 547v-36h-33v36h33zM333 450h-166v-33h66v-37h-66v-33h100v70h66v33zM333 390h-33v-66h-133v-34h166v100zM333 268h-100v-56h34v23h33v-47
h-100v80h-33v-113h166v113zM333 95h-166v-113h166v113zM300 62v-47h-100v47h100zM333 -41h-166v-33h70l-70 -47v-33h166v33h-102l70 47h32v33z" />
    <glyph glyph-name=".null" horiz-adv-x="0" 
 />
    <glyph glyph-name="nonmarkingreturn" horiz-adv-x="333" 
 />
    <glyph glyph-name="space" unicode=" " horiz-adv-x="210" 
 />
    <glyph glyph-name="exclam" unicode="!" horiz-adv-x="290" 
d="M72 630v-358q0 -31 21 -52t51 -21q29 0 50 21t21 52v358q0 29 -21 49.5t-50 20.5q-30 0 -51 -20.5t-21 -49.5zM144 -10q-34 0 -58.5 24t-24.5 59q0 34 24.5 58t58.5 24t58 -24t24 -58t-24 -58.5t-58 -24.5z" />
    <glyph glyph-name="quotedbl" unicode="&#x22;" horiz-adv-x="482" 
d="M141 700q-34 0 -54.5 -12t-20.5 -27q0 -17 28 -172q11 -58 47 -58t47 58q28 155 28 172q0 15 -20.5 27t-54.5 12zM341 700q-34 0 -54.5 -12t-20.5 -27q0 -17 28 -172q11 -58 47 -58t47 58q28 155 28 172q0 15 -20.5 27t-54.5 12z" />
    <glyph glyph-name="numbersign" unicode="#" horiz-adv-x="685" 
d="M612 409h-66l-31 -177h44q25 0 42 -17t17 -42t-17 -42.5t-42 -17.5h-65l-13 -73q-4 -21 -20 -35.5t-40 -14.5q-26 0 -44 16t-18 43q0 7 2 21l8 43h-129l-13 -73q-4 -21 -20 -35.5t-40 -14.5q-26 0 -44 16t-18 43q0 7 2 21l8 43h-42q-25 0 -42 17.5t-17 42.5t17 42t42 17
h63l31 177h-41q-25 0 -42 17.5t-17 42.5t17 42t42 17h62l16 92q4 21 20 35.5t40 14.5q25 0 43.5 -17.5t18.5 -44.5q0 -4 -2 -18l-11 -62h129l16 92q4 21 20 35.5t40 14.5q25 0 43.5 -17.5t18.5 -44.5q0 -4 -2 -18l-11 -62h45q25 0 42 -17t17 -42t-17 -42.5t-42 -17.5z
M390 232l31 177h-129l-31 -177h129z" />
    <glyph glyph-name="dollar" unicode="$" horiz-adv-x="631" 
d="M592 215q2 -82 -52 -142t-156 -77v-43q0 -25 -19 -44t-44 -19t-43.5 18.5t-18.5 44.5v40q-99 14 -165 48q-59 31 -59 78q0 31 21 52t51 21q17 0 61 -15t64 -20q76 -19 114 -19q66 0 66 53q0 26 -19.5 41t-68.5 32l-85 30q-87 30 -129.5 78.5t-43.5 105.5q-2 82 48 139.5
t145 75.5v39q0 26 18.5 44.5t43.5 18.5t44 -18.5t19 -44.5v-36q93 -10 151 -47q45 -29 45 -71q0 -31 -21 -52t-51 -21q-18 0 -33.5 3.5t-38.5 12.5t-29 11q-59 19 -95 19q-29 0 -45.5 -15t-16.5 -37q0 -24 19.5 -40.5t62.5 -31.5l102 -36q156 -55 158 -176z" />
    <glyph glyph-name="percent" unicode="%" horiz-adv-x="824" 
d="M146 90l424 583q16 22 41.5 26.5t45.5 -9.5q22 -15 27 -41t-11 -48l-424 -583q-16 -22 -42 -26.5t-47 10.5q-21 14 -25 40t11 48zM197 349q-77 0 -126 50t-49 124q0 76 49 125.5t126 49.5q78 0 127 -50t49 -125q0 -74 -49.5 -124t-126.5 -50zM197 600q-26 0 -42.5 -23.5
t-16.5 -53.5q0 -31 16.5 -54t42.5 -23t43 24t17 53q0 30 -17 53.5t-43 23.5zM627 -10q-77 0 -126 50t-49 124q0 76 49 125.5t126 49.5t125.5 -50t48.5 -125q0 -74 -49 -124t-125 -50zM627 241q-26 0 -42.5 -23.5t-16.5 -53.5q0 -29 16.5 -52t42.5 -23t43 23.5t17 51.5
q0 30 -17 53.5t-43 23.5z" />
    <glyph glyph-name="ampersand" unicode="&#x26;" horiz-adv-x="709" 
d="M659 106q24 -22 24 -52q0 -25 -18.5 -44.5t-48.5 -19.5q-27 0 -69 33q-24 18 -61 50q-99 -83 -215 -83q-100 0 -163.5 52.5t-63.5 135.5q0 110 130 189q-68 82 -68 164q0 76 53.5 122.5t142.5 46.5q86 0 141 -46.5t55 -120.5q0 -49 -29 -98.5t-88 -86.5l97 -89
q32 43 57 85q20 31 57 31q28 0 47.5 -20t19.5 -48q0 -20 -16 -45q-35 -55 -63 -90q69 -57 79 -66zM302 592q-25 0 -42 -18t-17 -44q0 -44 48 -97l4 2q38 21 54.5 40.5t16.5 54.5q0 26 -18 44t-46 18zM191 184q0 -30 22.5 -47.5t60.5 -17.5q56 0 113 42l-106 98
q-3 3 -10.5 10t-11.5 10q-68 -41 -68 -95z" />
    <glyph glyph-name="quotesingle" unicode="'" horiz-adv-x="282" 
d="M141 700q-34 0 -54.5 -12t-20.5 -27q0 -17 28 -172q11 -58 47 -58t47 58q28 155 28 172q0 15 -20.5 27t-54.5 12z" />
    <glyph glyph-name="parenleft" unicode="(" horiz-adv-x="376" 
d="M50 319q0 223 157 407q25 30 59 30q33 0 54 -21t21 -55q0 -19 -10 -37q-1 -2 -29 -37q-102 -129 -102 -287q0 -103 30.5 -193t71.5 -142q28 -35 29 -37q10 -18 10 -37q0 -34 -21 -55t-54 -21q-34 0 -59 30q-157 184 -157 455z" />
    <glyph glyph-name="parenright" unicode=")" horiz-adv-x="360" 
d="M310 319q0 -271 -157 -455q-25 -30 -59 -30q-33 0 -54 21t-21 55q0 19 10 37q1 2 29 37q41 52 71.5 142t30.5 193q0 158 -102 287q-28 35 -29 37q-10 18 -10 37q0 34 21 55t54 21q34 0 59 -30q157 -184 157 -407z" />
    <glyph glyph-name="asterisk" unicode="*" horiz-adv-x="391" 
d="M364 485q19 -12 -6 -56q-12 -20 -24.5 -28.5t-20.5 -3.5q-20 12 -50 39t-33 29q2 -9 7 -31t8 -40t3 -35q0 -9 -14 -15.5t-37 -6.5t-37 6.5t-14 15.5q0 17 3 35t8 40t7 31q-3 -2 -33 -29t-50 -39q-8 -5 -20.5 3.5t-24.5 28.5q-25 44 -6 56q20 12 58 24t42 14q-9 3 -30 9
t-38 12.5t-32 15.5q-19 12 6 56q12 20 24.5 28.5t20.5 3.5q20 -12 50 -39t33 -29q-2 9 -7 31t-8 40t-3 35q0 9 14 15.5t37 6.5t37 -6.5t14 -15.5q0 -17 -3 -35t-8 -40t-7 -31q3 2 33 29t50 39q8 5 20.5 -3.5t24.5 -28.5q25 -44 6 -56q-15 -9 -32 -15.5t-38 -12.5t-30 -9
q4 -2 42 -14t58 -24z" />
    <glyph glyph-name="plus" unicode="+" 
d="M483 328q27 0 45.5 -19t18.5 -45q0 -27 -18.5 -45.5t-45.5 -18.5h-126v-142q0 -27 -20 -47.5t-48 -20.5t-48 20.5t-20 47.5v142h-129q-27 0 -45.5 18.5t-18.5 45.5q0 26 18.5 45t45.5 19h129v142q0 28 19.5 48t48.5 20t48.5 -20t19.5 -48v-142h126z" />
    <glyph glyph-name="comma" unicode="," horiz-adv-x="286" 
d="M148 147q38 0 62.5 -27.5t24.5 -70.5q0 -58 -42 -107t-104 -49q-10 0 -15.5 6.5t-5.5 14.5q0 13 13 19q43 18 58 49q-34 3 -54.5 28t-20.5 56q0 32 24 56.5t60 24.5zM147 19v7v-7z" />
    <glyph glyph-name="hyphen" unicode="-" horiz-adv-x="370" 
d="M265 325h-160q-25 0 -43 -17.5t-18 -42.5q0 -26 17.5 -44t43.5 -18h160q26 0 43.5 18t17.5 44q0 25 -18 42.5t-43 17.5z" />
    <glyph glyph-name="period" unicode="." horiz-adv-x="290" 
d="M145 -10q-35 0 -59 24t-24 59q0 34 24.5 58t58.5 24t58 -24t24 -58t-24 -58.5t-58 -24.5z" />
    <glyph glyph-name="slash" unicode="/" horiz-adv-x="564" 
d="M65 -10q-10 -23 -0.5 -46.5t32.5 -33.5t46.5 -0.5t33.5 32.5l322 756q10 23 0.5 47t-33.5 34q-23 10 -46 0t-33 -33z" />
    <glyph glyph-name="zero" unicode="0" horiz-adv-x="644" 
d="M322 700q130 0 204.5 -97.5t74.5 -258.5q0 -160 -74.5 -257t-204.5 -97q-131 0 -205 97t-74 257q0 162 74 259t205 97zM322 142q122 0 122 202q0 204 -122 204t-122 -204q0 -202 122 -202z" />
    <glyph glyph-name="one" unicode="1" horiz-adv-x="406" 
d="M227 700q34 0 57.5 -23.5t23.5 -54.5v-588q0 -16 -9 -25t-24 -9h-94q-34 0 -34 34l1 488l-37 -9q-31 -8 -59 8t-35 47q-8 31 8 58.5t47 35.5q143 38 155 38z" />
    <glyph glyph-name="two" unicode="2" horiz-adv-x="569" 
d="M454 151q32 0 54 -22.5t22 -53.5t-22 -53t-54 -22h-341q-32 0 -54 22t-22 53t25 56q66 70 270 280q22 25 22 57q0 34 -24.5 58t-58.5 24q-19 0 -32 -6.5t-20 -12.5t-32 -33q-22 -24 -58 -24q-32 0 -54.5 22.5t-22.5 55.5q0 50 62 96q67 52 156 52q97 0 165 -59.5
t68 -159.5q0 -108 -106 -216l-115 -114h172z" />
    <glyph glyph-name="three" unicode="3" horiz-adv-x="580" 
d="M373 410q65 -21 105 -71.5t40 -119.5q0 -108 -72.5 -168.5t-177.5 -60.5q-132 0 -204 88q-18 23 -18 49q0 33 22.5 56t54.5 23q20 0 37.5 -10t28.5 -21.5t31.5 -21.5t47.5 -10q45 0 70 21t25 58q-2 31 -24.5 52.5t-53.5 20.5q-39 -1 -54.5 1.5t-29.5 13.5q-25 21 -25 53
q0 24 14 41l109 138h-186q-31 0 -52.5 21.5t-21.5 51.5q0 31 21.5 53t52.5 22h326q30 0 51.5 -22t21.5 -53q0 -25 -19 -50z" />
    <glyph glyph-name="four" unicode="4" horiz-adv-x="656" 
d="M566 279q26 0 44.5 -18.5t18.5 -44.5q0 -27 -18.5 -45.5t-44.5 -18.5h-49v-118q0 -16 -9 -25t-24 -9h-94q-34 0 -34 34v118h-258q-31 0 -49.5 21.5t-18.5 53.5q0 35 28 72l264 356q34 45 89 45q47 0 76 -29.5t29 -77.5l1 -314h49zM202 279h154v199z" />
    <glyph glyph-name="five" unicode="5" horiz-adv-x="579" 
d="M296 449q101 0 168 -60.5t67 -168.5q0 -109 -72 -169.5t-177 -60.5q-66 0 -122 23t-86 62q-27 32 -27 61q0 32 22.5 55t54.5 23t61 -27q47 -45 97 -45q41 0 67 22.5t26 56.5q0 33 -25 54t-63 21h-135q-34 0 -55 23.5t-18 60.5l18 239q2 30 22.5 50.5t49.5 20.5h274
q31 0 52.5 -22t21.5 -52t-21.5 -51.5t-52.5 -21.5h-194l-8 -94h55z" />
    <glyph glyph-name="six" unicode="6" horiz-adv-x="609" 
d="M333 479q102 -8 165.5 -75.5t63.5 -168.5q0 -108 -72 -176.5t-187 -68.5q-114 0 -185 68.5t-71 176.5q0 80 40 141q143 218 189 289q23 34 62 34q30 0 53 -22t23 -52q0 -24 -12 -41zM303 136q42 0 71.5 29t29.5 70q0 42 -29.5 71t-71.5 29q-41 0 -70 -29t-29 -71
q0 -41 29 -70t70 -29z" />
    <glyph glyph-name="seven" unicode="7" horiz-adv-x="530" 
d="M430 690q31 0 53 -22.5t22 -53.5q0 -16 -7 -33l-221 -543q-9 -22 -28 -35t-43 -13q-32 0 -54.5 22.5t-22.5 54.5q0 17 5 28l178 444h-227q-31 0 -53 21.5t-22 53.5q0 31 22 53.5t53 22.5h345z" />
    <glyph glyph-name="eight" unicode="8" horiz-adv-x="627" 
d="M475 360q89 -58 89 -164q0 -95 -65.5 -150.5t-184.5 -55.5t-185 55.5t-66 150.5q0 106 89 164q-65 48 -65 137q0 96 64 149.5t163 53.5t163 -53.5t64 -149.5q0 -89 -66 -137zM314 558q-30 0 -51 -21t-21 -50t21 -50t51 -21q29 0 50 21t21 50t-21 50t-50 21zM315 133
q42 0 69 22t27 60q0 37 -27 59t-69 22q-41 0 -67.5 -22t-26.5 -59q0 -38 26.5 -60t67.5 -22z" />
    <glyph glyph-name="nine" unicode="9" horiz-adv-x="609" 
d="M306 709q114 0 185 -68.5t71 -176.5q0 -80 -40 -141q-143 -218 -189 -289q-23 -34 -62 -34q-30 0 -53 22t-23 52q0 24 12 41l69 105q-102 8 -165.5 75.5t-63.5 168.5q0 108 72 176.5t187 68.5zM306 364q41 0 70 29t29 71q0 40 -29.5 69.5t-69.5 29.5q-42 0 -71.5 -29
t-29.5 -70q0 -42 29.5 -71t71.5 -29z" />
    <glyph glyph-name="colon" unicode=":" horiz-adv-x="326" 
d="M163 363q-35 0 -59 24.5t-24 58.5t24.5 58t58.5 24t58 -24t24 -58t-24 -58.5t-58 -24.5zM163 0q-35 0 -59 24t-24 59q0 34 24.5 58t58.5 24t58 -24t24 -58t-24 -58.5t-58 -24.5z" />
    <glyph glyph-name="semicolon" unicode=";" horiz-adv-x="326" 
d="M163 363q-35 0 -59 24.5t-24 58.5t24.5 58t58.5 24t58 -24t24 -58t-24 -58.5t-58 -24.5zM164 165q38 0 62.5 -27.5t24.5 -70.5q0 -58 -42 -107t-104 -49q-10 0 -15.5 6.5t-5.5 14.5q0 13 13 19q43 18 58 49q-34 3 -54.5 28t-20.5 56q0 32 24 56.5t60 24.5zM163 37v7v-7z
" />
    <glyph glyph-name="less" unicode="&#x3c;" horiz-adv-x="484" 
d="M399 105q25 -22 25 -54q0 -23 -18.5 -41t-42.5 -18q-25 0 -44 17l-233 201q-26 22 -26 55t26 55l233 201q19 17 44 17q24 0 42.5 -18t18.5 -41q0 -32 -25 -54l-184 -160z" />
    <glyph glyph-name="equal" unicode="=" horiz-adv-x="609" 
d="M500 309q27 0 45.5 18.5t18.5 45.5q0 26 -18.5 45t-45.5 19h-391q-27 0 -45.5 -19t-18.5 -45q0 -27 18.5 -45.5t45.5 -18.5h391zM500 91q27 0 45.5 18.5t18.5 45.5q0 26 -18.5 45t-45.5 19h-391q-27 0 -45.5 -19t-18.5 -45q0 -27 18.5 -45.5t45.5 -18.5h391z" />
    <glyph glyph-name="greater" unicode="&#x3e;" horiz-adv-x="484" 
d="M398 320q26 -22 26 -55t-26 -55l-233 -201q-19 -17 -44 -17q-24 0 -42.5 18t-18.5 41q0 32 25 54l184 160l-184 160q-25 22 -25 54q0 23 18.5 41t42.5 18q25 0 44 -17z" />
    <glyph glyph-name="question" unicode="?" 
d="M169 283v39q0 14 5.5 26.5t12 21t21 19t22 15t25.5 14t23 12.5q24 13 34 19.5t18.5 19.5t8.5 31q0 21 -16.5 38.5t-40.5 17.5q-36 0 -83 -21q-7 -3 -24 -11.5t-25.5 -12t-22 -7t-25.5 -3.5q-26 0 -46 19.5t-20 46.5q0 39 44 70q39 28 98 45.5t117 17.5q97 0 151.5 -48.5
t54.5 -125.5q0 -116 -127 -187q-49 -27 -55 -36q-6 -8 -6 -20q0 -30 -21 -51t-51 -21t-51 21t-21 51zM242 -10q-34 0 -58.5 24t-24.5 59q0 34 24.5 58t58.5 24t58 -24t24 -58t-24 -58.5t-58 -24.5z" />
    <glyph glyph-name="at" unicode="@" horiz-adv-x="780" 
d="M405 619q155 0 254.5 -87t99.5 -224q0 -101 -52.5 -159t-132.5 -58q-81 0 -109 51q-56 -50 -129 -50q-58 0 -102 41t-44 115q0 80 52.5 133.5t129.5 53.5q73 0 106 -47q18 32 48 32q18 0 32.5 -11t14.5 -29q0 -9 -1 -14l-22 -122q-2 -10 -2 -15q0 -40 30 -40q36 0 55 28
t19 79q0 100 -70 161.5t-186 61.5q-126 0 -208.5 -76.5t-82.5 -198.5q0 -112 78.5 -173t197.5 -61q79 0 132 35q7 5 16 5q16 0 28.5 -20.5t12.5 -39.5q0 -24 -20 -35q-79 -46 -172 -46q-157 0 -268.5 91t-111.5 245q0 164 114.5 269t292.5 105zM366 192q36 0 58 23.5
t22 59.5q0 28 -19.5 46t-49.5 18q-36 0 -58 -23.5t-22 -58.5q0 -29 19 -47t50 -18z" />
    <glyph glyph-name="A" unicode="A" horiz-adv-x="687" 
d="M684 35q7 -16 -3 -25.5t-26 -9.5h-91q-32 0 -45 31q-41 98 -44 104h-263q-7 -18 -22 -53t-22 -51q-13 -31 -49 -31h-87q-16 0 -26 9.5t-3 25.5l270 630q8 20 27 33.5t44 13.5q22 0 42 -12.5t29 -34.5zM266 268h156q-47 120 -78 206q-38 -107 -78 -206z" />
    <glyph glyph-name="B" unicode="B" horiz-adv-x="701" 
d="M581 370q90 -53 90 -172q0 -82 -58 -140t-140 -58h-303q-33 0 -56.5 23.5t-23.5 56.5v541q0 33 23.5 56.5t56.5 23.5h264q82 0 140 -58t58 -141q0 -76 -51 -132zM489 487q0 28 -20 48t-48 20h-170v-138h170q28 0 48 20t20 50zM446 147q28 0 48 20t20 50q0 28 -20 48
t-48 20h-195v-138h195z" />
    <glyph glyph-name="C" unicode="C" horiz-adv-x="658" 
d="M375 -10q-150 0 -247.5 100.5t-97.5 255.5q0 154 98 254t249 100q159 0 243 -99q20 -25 20 -48q0 -30 -21 -50t-49 -20q-22 0 -44 15q-6 4 -24.5 17t-27 18t-25.5 13t-34.5 11t-39.5 3q-79 0 -132.5 -61t-53.5 -154t55 -154t135 -61q22 0 40.5 3t35 11t25.5 13.5t26.5 18
t23.5 16.5q22 15 44 15q28 0 48.5 -20t20.5 -50q0 -25 -19 -48q-80 -99 -249 -99z" />
    <glyph glyph-name="D" unicode="D" horiz-adv-x="733" 
d="M337 701q165 0 265.5 -100t100.5 -251q0 -149 -101 -249.5t-265 -100.5h-174q-73 0 -73 61v560q0 38 22.5 58.5t57.5 20.5v1h167zM344 147q90 0 141.5 60.5t51.5 146.5t-54.5 143.5t-144.5 57.5h-88v-408h94z" />
    <glyph glyph-name="E" unicode="E" horiz-adv-x="616" 
d="M511 150q34 0 57 -21t23 -54t-23 -54t-57 -21h-354q-28 0 -47.5 16.5t-19.5 44.5v551q0 37 22.5 57.5t56.5 20.5h1h341q34 0 57 -21t23 -54t-23 -54t-57 -21h-260v-121h215q34 0 57 -21t23 -54t-23 -54t-57 -21h-215v-119h260z" />
    <glyph glyph-name="F" unicode="F" horiz-adv-x="587" 
d="M511 540h-260v-135h215q34 0 57 -21t23 -54t-23 -54t-57 -21h-215v-221q0 -16 -9 -25t-24 -9h-94q-34 0 -34 34v578q0 37 22.5 57.5t56.5 20.5h1h341q34 0 57 -21t23 -54t-23 -54t-57 -21z" />
    <glyph glyph-name="G" unicode="G" horiz-adv-x="713" 
d="M595 389q36 0 59 -20.5t23 -57.5v-193q0 -60 -81.5 -94t-204.5 -34q-162 0 -261.5 100t-99.5 256q0 157 96 255.5t264 98.5q163 0 243 -99q20 -25 20 -48q0 -30 -21 -50t-49 -20q-21 0 -44 15q-6 4 -24.5 17t-27 18t-25.5 13t-34.5 11t-39.5 3q-93 0 -146 -59.5
t-53 -155.5q0 -95 59.5 -155t160.5 -60q71 0 107 16v94l-76 1q-33 1 -55 22t-22 53t22 53t55 21z" />
    <glyph glyph-name="H" unicode="H" horiz-adv-x="763" 
d="M592 700q33 0 57 -23.5t24 -56.5v-586q0 -16 -9 -25t-24 -9h-94q-34 0 -34 34v229h-261v-229q0 -16 -9 -25t-24 -9h-94q-34 0 -34 34v586q0 33 23.5 56.5t56.5 23.5t57 -23.5t24 -56.5v-212h261v212q0 33 23.5 56.5t56.5 23.5z" />
    <glyph glyph-name="I" unicode="I" horiz-adv-x="341" 
d="M90 34q0 -34 34 -34h94q15 0 24 9t9 25v586q0 33 -24 56.5t-57 23.5t-56.5 -23.5t-23.5 -56.5v-586z" />
    <glyph glyph-name="J" unicode="J" horiz-adv-x="562" 
d="M494 620v-374q0 -112 -68.5 -184t-180.5 -72q-96 0 -170.5 50t-74.5 108q0 31 24 55t55 24q21 0 35.5 -8t37.5 -31q43 -41 94 -41q37 0 62 24.5t25 65.5v383q0 33 23.5 56.5t56.5 23.5t57 -23.5t24 -56.5z" />
    <glyph glyph-name="K" unicode="K" horiz-adv-x="627" 
d="M598 130q23 -25 23 -54q0 -38 -24 -60t-58 -22q-31 0 -58 27l-230 238v-225q0 -16 -9 -25t-24 -9h-94q-34 0 -34 34v586q0 33 23.5 56.5t56.5 23.5t57 -23.5t24 -56.5v-159l230 217q24 22 55 22q30 0 52.5 -23t22.5 -54q0 -33 -27 -58l-217 -203q24 -24 73 -72
t86.5 -85.5t71.5 -74.5z" />
    <glyph glyph-name="L" unicode="L" horiz-adv-x="581" 
d="M491 145q35 0 57 -20.5t22 -51.5t-22 -52t-57 -21h-334q-28 0 -47.5 16.5t-19.5 44.5v559q0 33 23.5 56.5t56.5 23.5t57 -23.5t24 -56.5v-475h240z" />
    <glyph glyph-name="M" unicode="M" horiz-adv-x="902" 
d="M853 38q2 -19 -8.5 -28.5t-26.5 -9.5h-81q-37 0 -41 38l-38 336l-135 -336q-15 -38 -42 -38h-59q-15 0 -24.5 8t-17.5 29l-137 338l-36 -337q-4 -38 -41 -38h-81q-16 0 -26.5 9.5t-8.5 28.5q43 388 73 595q9 67 83 67q57 0 83 -65l162 -398l162 398q26 65 88 65
q29 0 50.5 -15t25.5 -45q17 -114 46 -354.5t30 -247.5z" />
    <glyph glyph-name="N" unicode="N" horiz-adv-x="780" 
d="M690 620l1 -588q0 -13 -9 -22.5t-23 -9.5h-65q-33 0 -60 35l-287 378l4 -379q0 -16 -9 -25t-24 -9h-94q-34 0 -34 34v584q0 33 24 57.5t57 24.5q40 0 77 -47l284 -368l-3 335q0 33 23.5 56.5t56.5 23.5t57 -23.5t24 -56.5z" />
    <glyph glyph-name="O" unicode="O" horiz-adv-x="777" 
d="M389 -10q-150 0 -254.5 102.5t-104.5 251.5q0 150 104.5 252.5t254.5 102.5t254 -102.5t104 -252.5q0 -149 -104 -251.5t-254 -102.5zM388 142q84 0 141.5 58.5t57.5 143.5q0 84 -57.5 143.5t-141.5 59.5t-141 -59.5t-57 -143.5q0 -85 57 -143.5t141 -58.5z" />
    <glyph glyph-name="P" unicode="P" horiz-adv-x="640" 
d="M381 700q106 0 175 -67t69 -171q0 -113 -68 -180.5t-176 -67.5h-130v-180q0 -16 -9 -25t-24 -9h-94q-34 0 -34 34v586q0 33 23.5 56.5t56.5 23.5h211zM370 358q40 0 68.5 28.5t28.5 69.5q0 40 -28.5 68.5t-68.5 28.5h-119v-195h119z" />
    <glyph glyph-name="Q" unicode="Q" horiz-adv-x="797" 
d="M734 96q22 -23 22.5 -52t-21.5 -52q-24 -23 -53.5 -22t-51.5 24l-49 50q-89 -54 -192 -54q-150 0 -254.5 102.5t-104.5 251.5q0 150 104.5 252.5t254.5 102.5t254 -102.5t104 -252.5q0 -111 -61 -200zM388 142q40 0 80 16l-29 29q-23 24 -24.5 53.5t21.5 53.5
q23 22 53.5 20.5t53.5 -25.5l27 -28q17 40 17 83q0 84 -57.5 143.5t-141.5 59.5t-141 -59.5t-57 -143.5q0 -85 57 -143.5t141 -58.5z" />
    <glyph glyph-name="R" unicode="R" horiz-adv-x="665" 
d="M613 119q16 -26 16 -49q0 -33 -22.5 -54.5t-57.5 -21.5q-46 0 -66 30l-138 212h-94v-202q0 -16 -9 -25t-24 -9h-94q-34 0 -34 34v586q0 33 24 56.5t57 23.5h211q107 0 176.5 -66.5t69.5 -169.5q0 -53 -30.5 -103.5t-80.5 -83.5zM380 378q36 0 61.5 25.5t25.5 62.5
q0 36 -25.5 61.5t-61.5 25.5h-129v-175h129z" />
    <glyph glyph-name="S" unicode="S" horiz-adv-x="631" 
d="M346 138q-38 0 -114 19q-20 5 -64 20t-61 15q-30 0 -51 -21t-21 -52q0 -47 59 -78q44 -23 105.5 -37t111.5 -14q137 0 210 64.5t71 160.5q-2 121 -158 176l-102 36q-43 15 -62.5 31.5t-19.5 40.5q0 22 16.5 37t45.5 15q36 0 95 -19q8 -3 23.5 -9t25 -9t24 -6t28.5 -3
q30 0 51 21t21 52q0 42 -45 71q-36 23 -92.5 36.5t-108.5 13.5q-129 0 -199.5 -61.5t-68.5 -159.5q1 -57 43.5 -105.5t129.5 -78.5l85 -30q49 -17 68.5 -32t19.5 -41q0 -53 -66 -53z" />
    <glyph glyph-name="T" unicode="T" horiz-adv-x="582" 
d="M505 690q32 0 54.5 -21.5t22.5 -53.5t-22.5 -53.5t-54.5 -21.5h-134v-506q0 -16 -9 -25t-24 -9h-94q-34 0 -34 34v506h-133q-32 0 -54.5 21.5t-22.5 53.5t22.5 53.5t54.5 21.5h428z" />
    <glyph glyph-name="U" unicode="U" horiz-adv-x="721" 
d="M492 620v-324q0 -73 -36 -113.5t-95 -40.5q-58 0 -95 40t-37 114v324q0 33 -24 56.5t-57 23.5t-56.5 -23.5t-23.5 -56.5v-338q0 -133 82.5 -212.5t210.5 -79.5q126 0 209 79t83 213v338q0 33 -24 56.5t-57 23.5t-56.5 -23.5t-23.5 -56.5z" />
    <glyph glyph-name="V" unicode="V" horiz-adv-x="655" 
d="M555 700q36 0 61.5 -26t25.5 -62q0 -21 -24 -76l-215 -484q-11 -23 -18 -34.5t-21.5 -19.5t-35.5 -8q-31 0 -46.5 14.5t-29.5 47.5l-215 484q-24 55 -24 76q0 36 25.5 62t61.5 26q27 0 49.5 -15t32.5 -40l146 -367l145 367q10 25 32.5 40t49.5 15z" />
    <glyph glyph-name="W" unicode="W" horiz-adv-x="1016" 
d="M916 700q36 0 61.5 -26t25.5 -62q0 -20 -23 -76l-195 -484q-13 -33 -29 -47.5t-47 -14.5t-47.5 15t-27.5 47l-126 352l-126 -352q-11 -32 -27.5 -47t-47.5 -15t-46.5 14.5t-29.5 47.5l-195 484q-23 56 -23 76q0 36 25.5 62t61.5 26q61 0 82 -57l128 -342l115 337
q11 29 33.5 45.5t49.5 16.5q29 0 51 -16.5t32 -45.5l115 -337l128 342q21 57 82 57z" />
    <glyph glyph-name="X" unicode="X" horiz-adv-x="637" 
d="M594 127q20 -25 20 -57q0 -33 -23 -56.5t-58 -23.5q-41 0 -67 34l-147 194l-148 -194q-26 -34 -67 -34q-35 0 -58 23.5t-23 56.5q0 32 20 57l172 227l-158 209q-20 25 -20 57q0 33 23 56.5t58 23.5q41 0 67 -34l134 -176l133 176q26 34 67 34q35 0 58 -23.5t23 -56.5
q0 -32 -20 -57l-158 -209z" />
    <glyph glyph-name="Y" unicode="Y" horiz-adv-x="584" 
d="M582 624q0 -26 -15 -46l-199 -262v-288q0 -28 -28 -28h-105q-28 0 -28 28v302l-189 248q-16 22 -16 46q0 31 22.5 53.5t57.5 22.5q38 0 65 -36l146 -193l146 193q27 36 63 36q32 0 56 -23t24 -53z" />
    <glyph glyph-name="Z" unicode="Z" horiz-adv-x="598" 
d="M500 150q33 0 55.5 -21.5t22.5 -53.5t-22.5 -53.5t-55.5 -21.5h-393q-32 0 -55 23t-23 55q0 29 24 61l298 401h-246q-32 0 -54.5 21.5t-22.5 53.5t22.5 53.5t54.5 21.5h389q32 0 54.5 -22.5t22.5 -54.5q0 -23 -23 -54l-299 -409h251z" />
    <glyph glyph-name="bracketleft" unicode="[" horiz-adv-x="420" 
d="M317 -26q29 0 48.5 -20t19.5 -48t-19.5 -48t-48.5 -20h-126q-50 0 -80.5 32.5t-30.5 76.5v700q0 44 30.5 76.5t80.5 32.5h126q29 0 48.5 -20t19.5 -48t-19.5 -48t-48.5 -20h-87v-646h87z" />
    <glyph glyph-name="backslash" unicode="\" horiz-adv-x="565" 
d="M500 -10l-322 756q-10 23 -33.5 33t-45.5 0q-24 -10 -34 -34t0 -47l323 -756q10 -23 33.5 -32.5t46.5 0.5t32.5 33.5t-0.5 46.5z" />
    <glyph glyph-name="bracketright" unicode="]" horiz-adv-x="395" 
d="M204 756q50 0 80.5 -32.5t30.5 -76.5v-700q0 -44 -30.5 -76.5t-80.5 -32.5h-126q-28 0 -48 20t-20 48t20 48t48 20h87v646h-87q-28 0 -48 20t-20 48t20 48t48 20h126z" />
    <glyph glyph-name="asciicircum" unicode="^" 
d="M556 284q9 -18 9 -34q0 -23 -18 -41t-43 -18q-34 0 -56 34l-164 258l-164 -258q-22 -34 -56 -34q-25 0 -43 18t-18 41q0 17 9 35l169 304q20 36 42 45t61 9q40 0 62.5 -9.5t41.5 -44.5z" />
    <glyph glyph-name="underscore" unicode="_" horiz-adv-x="802" 
d="M741 -112q21 0 36 15t15 36t-15 36t-36 15h-680q-22 0 -36.5 -15t-14.5 -36t14.5 -36t36.5 -15h680z" />
    <glyph glyph-name="grave" unicode="`" 
d="M445 592q-23 -25 -60 1l-104 74q-24 18 -27 21q-22 22 26 69q47 47 68 26q5 -5 21 -27l75 -104q24 -35 1 -60z" />
    <glyph glyph-name="a" unicode="a" horiz-adv-x="640" 
d="M506 538q30 0 51 -21t21 -51v-427q0 -39 -38 -39h-66q-39 0 -39 39v7q-59 -56 -140 -56q-109 0 -188 80.5t-79 194.5q0 113 79 193t188 80q84 0 143 -50q7 22 25.5 36t42.5 14zM301 130q56 0 95 39t39 96q0 56 -39 94.5t-95 38.5q-55 0 -94.5 -39t-39.5 -94
q0 -57 39.5 -96t94.5 -39z" />
    <glyph glyph-name="b" unicode="b" horiz-adv-x="621" 
d="M320 538q113 0 193 -80t80 -193q0 -115 -80 -195t-193 -80q-114 0 -194 81.5t-80 201.5v413q0 31 20.5 50.5t51.5 19.5q30 0 50.5 -19.5t20.5 -50.5v-192q57 44 131 44zM323 130q56 0 95 39t39 96q0 56 -39 94.5t-95 38.5q-55 0 -94.5 -39t-39.5 -94q0 -57 39.5 -96
t94.5 -39z" />
    <glyph glyph-name="c" unicode="c" horiz-adv-x="519" 
d="M302 -10q-118 0 -196 79.5t-78 193.5t77.5 194t196.5 80q87 0 158 -40q43 -25 43 -63q0 -28 -19.5 -48t-46.5 -20q-17 0 -39 12q-41 22 -85 22q-56 0 -96.5 -37.5t-40.5 -98.5t40.5 -99.5t95.5 -38.5q50 0 89 21q22 12 39 12q27 0 46.5 -20t19.5 -48q0 -38 -43 -63
q-67 -38 -161 -38z" />
    <glyph glyph-name="d" unicode="d" horiz-adv-x="621" 
d="M503 756q31 0 51.5 -19.5t20.5 -50.5v-413q0 -120 -80 -201.5t-194 -81.5q-113 0 -193 80t-80 195q0 113 80 193t193 80q74 0 131 -44v192q0 31 20.5 50.5t50.5 19.5zM298 130q55 0 94.5 39t39.5 96q0 55 -39.5 94t-94.5 39q-56 0 -95 -38.5t-39 -94.5q0 -57 39 -96
t95 -39z" />
    <glyph glyph-name="e" unicode="e" horiz-adv-x="593" 
d="M573 285q0 -40 -16.5 -60t-41.5 -20h-342q13 -40 55 -64.5t98 -24.5q61 0 109 28q21 12 40 12q26 0 45 -18.5t19 -46.5q0 -40 -44 -64q-65 -37 -176 -37q-128 0 -209.5 76t-81.5 196q0 115 79 195.5t196 80.5q109 0 189.5 -78.5t80.5 -174.5zM170 308h261
q-9 41 -45.5 69.5t-84.5 28.5t-85 -28.5t-46 -69.5z" />
    <glyph glyph-name="f" unicode="f" horiz-adv-x="437" 
d="M327 528q29 0 49 -20t20 -48q0 -29 -20 -49.5t-49 -20.5h-96v-362q0 -28 -28 -28h-87q-28 0 -28 28l1 362h-13q-29 0 -49 20.5t-20 49.5q0 28 20 48t49 20h13v5q0 106 54.5 164.5t141.5 58.5h56q33 0 53.5 -23t20.5 -55q0 -30 -23 -51.5t-52 -21.5h-32q-35 0 -56 -19
t-21 -58h96z" />
    <glyph glyph-name="g" unicode="g" horiz-adv-x="640" 
d="M506 538q30 0 51 -21t21 -51v-427q0 -115 -79 -193.5t-213 -78.5q-91 0 -166.5 35.5t-75.5 89.5q0 28 19.5 47.5t47.5 19.5q21 0 78 -25.5t106 -25.5q56 0 96 33.5t40 73.5q0 13 -10 13q-3 0 -7.5 -2.5t-12 -7l-12.5 -7.5q-42 -21 -94 -21q-109 0 -188 80.5t-79 194.5
q0 113 79 193t188 80q84 0 143 -50q7 22 25.5 36t42.5 14zM301 130q56 0 95 39t39 96q0 56 -39 94.5t-95 38.5q-55 0 -94.5 -39t-39.5 -94q0 -57 39.5 -96t94.5 -39z" />
    <glyph glyph-name="h" unicode="h" horiz-adv-x="598" 
d="M56 28q0 -28 28 -28h87q28 0 28 28v269q0 44 28.5 74t71.5 30t71 -29.5t28 -74.5v-269q0 -28 28 -28h87q28 0 28 28v271q0 111 -55 175t-148 64q-81 0 -138 -46l-1 192q0 30 -21 51t-51 21q-29 0 -50 -21t-21 -51v-656z" />
    <glyph glyph-name="i" unicode="i" horiz-adv-x="272" 
d="M136 592q-34 0 -58.5 24t-24.5 59q0 34 24.5 58t58.5 24t58 -24t24 -58t-24 -58.5t-58 -24.5zM208 466v-427q0 -39 -38 -39h-66q-39 0 -39 39v427q0 30 21 51t50 21q30 0 51 -21t21 -51z" />
    <glyph glyph-name="j" unicode="j" horiz-adv-x="265" 
d="M129 592q-35 0 -59 24t-24 59q0 34 24.5 58t58.5 24t58 -24t24 -58t-24 -58.5t-58 -24.5zM60 466q0 30 21 51t50 21q30 0 51 -21t21 -51l-1 -446q0 -60 -21 -116t-58 -88q-30 -27 -58 -36t-84 -9q-34 0 -54.5 21.5t-20.5 49.5q0 29 20.5 50.5t51.5 21.5q82 0 82 134v418z
" />
    <glyph glyph-name="k" unicode="k" horiz-adv-x="513" 
d="M486 118q23 -21 23 -53q0 -30 -21 -50.5t-51 -20.5q-33 0 -62 31l-176 183v-169q0 -39 -38 -39h-66q-39 0 -39 39v645q0 30 21 51t50 21q30 0 51 -21t21 -51v-312l184 143q30 23 53 23q29 0 48.5 -20.5t19.5 -49.5q0 -34 -26 -54l-166 -123z" />
    <glyph glyph-name="l" unicode="l" horiz-adv-x="255" 
d="M56 39v645q0 30 21 51t50 21q30 0 51 -21t21 -51v-645q0 -39 -38 -39h-66q-39 0 -39 39z" />
    <glyph glyph-name="m" unicode="m" horiz-adv-x="947" 
d="M688 538q97 0 149.5 -55t52.5 -144v-300q0 -39 -38 -39h-66q-39 0 -39 39v258q0 49 -27 76.5t-72 27.5q-44 0 -72 -26.5t-28 -75.5v-260q0 -39 -38 -39h-66q-39 0 -39 39v258q0 49 -27 76.5t-72 27.5q-44 0 -72 -27.5t-28 -76.5v-258q0 -39 -38 -39h-66q-39 0 -39 39v427
q0 30 21 51t50 21q28 0 48 -18t23 -45q56 63 155 63q92 0 156 -64q67 64 172 64z" />
    <glyph glyph-name="n" unicode="n" horiz-adv-x="605" 
d="M356 538q90 0 141 -55.5t51 -143.5v-311q0 -28 -28 -28h-87q-28 0 -28 28v269q0 49 -27.5 76.5t-71.5 27.5t-72 -28t-28 -76v-269q0 -28 -28 -28h-87q-28 0 -28 28v438q0 30 21 51t50 21q27 0 47.5 -18t23.5 -45q56 63 151 63z" />
    <glyph glyph-name="o" unicode="o" horiz-adv-x="602" 
d="M301 -10q-113 0 -193 80t-80 195q0 113 80 193t193 80t193 -80t80 -193q0 -115 -80 -195t-193 -80zM301 130q56 0 95 39t39 96q0 56 -39 94.5t-95 38.5q-55 0 -94.5 -39t-39.5 -94q0 -57 39.5 -96t94.5 -39z" />
    <glyph glyph-name="p" unicode="p" horiz-adv-x="621" 
d="M320 538q113 0 193 -80t80 -195q0 -113 -80 -193t-193 -80q-74 0 -131 44v-192q0 -31 -20.5 -50.5t-50.5 -19.5q-31 0 -51.5 19.5t-20.5 50.5v413q0 120 80 201.5t194 81.5zM323 130q56 0 95 38.5t39 94.5q0 57 -39 96t-95 39q-55 0 -94.5 -39t-39.5 -96q0 -55 39.5 -94
t94.5 -39z" />
    <glyph glyph-name="q" unicode="q" horiz-adv-x="621" 
d="M301 538q114 0 194 -81.5t80 -201.5v-413q0 -31 -20.5 -50.5t-51.5 -19.5q-30 0 -50.5 19.5t-20.5 50.5v192q-57 -44 -131 -44q-113 0 -193 80t-80 193q0 115 80 195t193 80zM298 130q55 0 94.5 39t39.5 94q0 57 -39.5 96t-94.5 39q-56 0 -95 -39t-39 -96q0 -56 39 -94.5
t95 -38.5z" />
    <glyph glyph-name="r" unicode="r" horiz-adv-x="440" 
d="M371 396q-8 0 -24 1t-26 1q-53 0 -92.5 -39t-39.5 -98v-233q0 -28 -28 -28h-87q-28 0 -28 28v232q0 75 36.5 138.5t97.5 100.5q63 39 156 39q43 0 60 -7q44 -18 44 -66q0 -28 -19.5 -48.5t-49.5 -20.5z" />
    <glyph glyph-name="s" unicode="s" horiz-adv-x="477" 
d="M244 109q-41 0 -90 15q-12 4 -27.5 10t-27.5 9.5t-25 3.5q-23 0 -39 -16.5t-16 -40.5q0 -32 38 -55q75 -45 183 -45q103 0 158.5 47t55.5 116q0 98 -125 148l-95 39q-36 13 -36 41q0 38 52 38q29 0 63 -10q6 -2 17 -5.5t17.5 -5.5t16.5 -3.5t21 -1.5q24 0 39.5 15
t15.5 39q0 26 -19 43q-53 48 -173 48q-96 0 -150 -46.5t-54 -110.5q0 -49 35.5 -90.5t104.5 -68.5l81 -32q36 -15 36 -42q0 -39 -57 -39z" />
    <glyph glyph-name="t" unicode="t" horiz-adv-x="401" 
d="M311 143q30 0 51 -21t21 -50q0 -30 -21 -51t-51 -21h-60q-97 0 -134 41t-37 156v193h-13q-29 0 -49 20.5t-20 49.5q0 28 20 48t49 20h13v76q0 31 21 50.5t52 19.5q29 0 49.5 -19.5t20.5 -50.5l-1 -76h91q29 0 49 -20t20 -48q0 -29 -20 -49.5t-49 -20.5h-92l-1 -183
q0 -37 15 -50.5t48 -13.5h28z" />
    <glyph glyph-name="u" unicode="u" horiz-adv-x="605" 
d="M470 538q30 0 51 -21t21 -51v-438q0 -28 -28 -28h-87q-28 0 -28 28v33q-61 -71 -150 -71t-140.5 60t-51.5 149v267q0 30 21 51t50 21q30 0 51 -21t21 -51v-225q0 -49 27.5 -76.5t71.5 -27.5t72 28t28 76v225q0 30 21 51t50 21z" />
    <glyph glyph-name="v" unicode="v" horiz-adv-x="540" 
d="M443 538q32 0 54.5 -23t22.5 -54q0 -20 -9 -38l-168 -382q-23 -51 -73 -51t-73 51l-168 382q-9 18 -9 38q0 31 22.5 54t54.5 23q53 0 75 -57q78 -202 98 -254q20 52 98 254q22 57 75 57z" />
    <glyph glyph-name="w" unicode="w" horiz-adv-x="870" 
d="M773 538q32 0 54.5 -23t22.5 -54q0 -15 -9 -38l-164 -382q-23 -51 -73 -51t-73 51l-96 223l-96 -223q-23 -51 -73 -51t-73 51l-164 382q-9 23 -9 38q0 31 22.5 54t54.5 23q53 0 75 -56l94 -254q62 168 94 253q22 57 75 57t75 -57q32 -85 94 -253l94 254q22 56 75 56z" />
    <glyph glyph-name="x" unicode="x" horiz-adv-x="513" 
d="M477 115q17 -22 17 -47q0 -32 -21 -55t-52 -23q-39 0 -62 30q-42 56 -102 129q-56 -66 -103 -129q-22 -30 -62 -30q-31 0 -52 23t-21 55q0 25 17 47q9 12 124 150q-64 76 -120 146q-20 25 -20 50q0 31 21 53t55 22q36 0 58 -28q9 -12 103 -125q101 124 102 125
q22 28 58 28q34 0 55 -22t21 -53q0 -25 -20 -50q-56 -70 -120 -146q115 -138 124 -150z" />
    <glyph glyph-name="y" unicode="y" horiz-adv-x="540" 
d="M443 538q32 0 54.5 -23t22.5 -54q0 -20 -9 -38l-168 -382l-3 -6h1l-31 -69q-55 -123 -148 -162q-35 -14 -68 -14q-41 0 -65 20.5t-24 51.5q0 29 21 50t50 21q36 0 59 21q32 30 60 92l-166 377q-9 18 -9 38q0 31 22.5 54t54.5 23q53 0 75 -57q78 -202 98 -254
q20 52 98 254q22 57 75 57z" />
    <glyph glyph-name="z" unicode="z" horiz-adv-x="509" 
d="M417 143q31 0 50.5 -20.5t19.5 -50.5q0 -31 -19.5 -51.5t-50.5 -20.5h-325q-32 0 -51.5 21.5t-19.5 54.5q0 37 24 63l219 246h-165q-31 0 -50.5 20.5t-19.5 51.5q0 30 19.5 50.5t50.5 20.5h320q27 0 48 -19.5t21 -51.5q0 -28 -38 -70l-217 -244h184z" />
    <glyph glyph-name="braceleft" unicode="{" horiz-adv-x="466" 
d="M129 222q33 0 45.5 -20t12.5 -61v-101q0 -82 48.5 -141.5t145.5 -59.5h21q29 0 29 29v92q0 29 -29 29h-21q-48 0 -48 56q0 13 1.5 53t1.5 67q0 45 -11.5 76.5t-44.5 55.5q33 24 44.5 55.5t11.5 76.5q0 27 -1.5 67.5t-1.5 52.5q0 56 48 56h21q29 0 29 29v92q0 29 -29 29
h-21q-96 0 -144.5 -59.5t-48.5 -141.5v-101q0 -40 -13 -60.5t-46 -20.5q-29 0 -29 -29v-92q0 -29 29 -29z" />
    <glyph glyph-name="bar" unicode="|" horiz-adv-x="303" 
d="M223 684v-845q0 -39 -38 -39h-66q-39 0 -39 39v845q0 30 21 51t50 21q30 0 51 -21t21 -51z" />
    <glyph glyph-name="braceright" unicode="}" horiz-adv-x="451" 
d="M322 222q29 0 29 29v92q0 29 -29 29q-33 0 -46 20.5t-13 60.5v101q0 82 -48.5 141.5t-144.5 59.5h-21q-29 0 -29 -29v-92q0 -29 29 -29h21q48 0 48 -56q0 -12 -1.5 -52.5t-1.5 -67.5q0 -45 11.5 -76.5t44.5 -55.5q-33 -24 -44.5 -55.5t-11.5 -76.5q0 -27 1.5 -67t1.5 -53
q0 -56 -48 -56h-21q-29 0 -29 -29v-92q0 -29 29 -29h21q97 0 145.5 59.5t48.5 141.5v101q0 41 12.5 61t45.5 20z" />
    <glyph glyph-name="asciitilde" unicode="~" horiz-adv-x="670" 
d="M462 134q-41 0 -80 18.5t-64 41t-55 41t-55 18.5q-44 0 -60 -59q-16 -61 -67 -61q-29 0 -48 19.5t-19 48.5q0 32 11 64t33 61.5t61 48t89 18.5q41 0 81 -18.5t66 -41t55.5 -41t51.5 -18.5q44 0 60 59q16 61 67 61q29 0 48 -19.5t19 -48.5q0 -32 -11 -64t-33 -61.5
t-61 -48t-89 -18.5z" />
    <glyph glyph-name="exclamdown" unicode="&#xa1;" horiz-adv-x="326" 
d="M165 538q34 0 58 -24.5t24 -58.5t-24 -58t-58 -24t-58.5 24t-24.5 58q0 35 24 59t59 24zM93 -102q0 -29 21 -49.5t51 -20.5q29 0 50 20.5t21 49.5v358q0 31 -21 52t-50 21q-30 0 -51 -21t-21 -52v-358z" />
    <glyph glyph-name="cent" unicode="&#xa2;" horiz-adv-x="519" 
d="M440 240q27 0 46.5 -20t19.5 -48q0 -38 -43 -63q-39 -22 -97 -32v-23q0 -26 -19 -45t-45 -19q-25 0 -43 19t-18 45v23q-95 20 -154 94.5t-59 172.5t59 173t154 95v24q0 26 18 45t43 19q26 0 45 -19t19 -45v-24q53 -11 94 -34q43 -25 43 -63q0 -28 -19.5 -48t-46.5 -20
q-17 0 -39 12q-17 9 -32 14v-259q21 7 35 14q22 12 39 12zM176 345q0 -80 65 -118v235q-65 -38 -65 -117z" />
    <glyph glyph-name="dieresis" unicode="&#xa8;" 
d="M204 606q-31 0 -53.5 22t-22.5 53t22.5 53t53.5 22q30 0 52 -22t22 -53t-22 -53t-52 -22zM395 606q-32 0 -54 22t-22 53t22 52.5t54 21.5q31 0 52.5 -21.5t21.5 -52.5t-21.5 -53t-52.5 -22z" />
    <glyph glyph-name="guillemotleft" unicode="&#xab;" horiz-adv-x="631" 
d="M301 424q0 -24 -21 -50l-90 -110l90 -110q21 -26 21 -50q0 -25 -18 -41.5t-40 -16.5q-33 0 -55 28l-100 123q-28 36 -28 67q0 33 28 68l100 122q22 28 55 28q23 0 40.5 -17t17.5 -41zM460 264l90 -110q21 -26 21 -50q0 -25 -18 -41.5t-40 -16.5q-33 0 -55 28l-100 123
q-28 36 -28 67q0 33 28 68l100 122q22 28 55 28q23 0 40.5 -17t17.5 -41t-21 -50z" />
    <glyph glyph-name="plusminus" unicode="&#xb1;" 
d="M92 314q-27 0 -45.5 18.5t-18.5 45.5q0 26 18.5 45t45.5 19h128v66q0 28 20 48.5t49 20.5t49.5 -20t20.5 -49v-66h124q27 0 45.5 -19t18.5 -45q0 -27 -18.5 -45.5t-45.5 -18.5h-124v-64q0 -28 -20.5 -49t-49.5 -21q-28 0 -48.5 21t-20.5 49v64h-128zM483 154
q27 0 45.5 -19t18.5 -45q0 -27 -18.5 -45.5t-45.5 -18.5h-391q-27 0 -45.5 18.5t-18.5 45.5q0 26 18.5 45t45.5 19h391z" />
    <glyph glyph-name="acute" unicode="&#xb4;" 
d="M174 592q-23 25 1 60l75 104q16 22 21 27q21 21 68 -26t26 -69q-3 -3 -27 -21l-104 -74q-37 -26 -60 -1z" />
    <glyph glyph-name="periodcentered" unicode="&#xb7;" horiz-adv-x="245" 
d="M123 182q-35 0 -59 24t-24 59q0 34 24.5 58t58.5 24t58 -24t24 -58t-24 -58.5t-58 -24.5z" />
    <glyph glyph-name="cedilla" unicode="&#xb8;" 
d="M356 -49q95 -12 95 -86q0 -47 -37 -73t-106 -26q-52 0 -81 18q-20 13 -20 33q0 14 10 24t25 10q7 0 28.5 -6t42.5 -6q49 0 49 21q0 22 -59 22q-33 0 -43.5 5.5t-10.5 18.5q0 4 4 14l50 106h91z" />
    <glyph glyph-name="guillemotright" unicode="&#xbb;" horiz-adv-x="631" 
d="M173 454l100 -122q28 -35 28 -68q0 -31 -28 -67l-100 -123q-22 -28 -55 -28q-22 0 -40 16.5t-18 41.5q0 24 21 50l90 110l-90 110q-21 26 -21 50t17.5 41t40.5 17q33 0 55 -28zM543 332q28 -35 28 -68q0 -31 -28 -67l-100 -123q-22 -28 -55 -28q-22 0 -40 16.5t-18 41.5
q0 24 21 50l90 110l-90 110q-21 26 -21 50t17.5 41t40.5 17q33 0 55 -28z" />
    <glyph glyph-name="questiondown" unicode="&#xbf;" horiz-adv-x="537" 
d="M315 538q35 0 59 -24t24 -59q0 -34 -24.5 -58t-58.5 -24t-58 24t-24 58t24 58.5t58 24.5zM388 245v-39q0 -14 -5.5 -26.5t-12 -21t-21 -19t-22 -15t-25.5 -14t-23 -12.5q-24 -13 -34 -19.5t-18.5 -19.5t-8.5 -31q0 -21 16.5 -38.5t40.5 -17.5q36 0 83 21q7 3 24 11.5
t25.5 12t22 7t25.5 3.5q26 0 46 -19.5t20 -46.5q0 -39 -44 -70q-39 -28 -98 -45.5t-117 -17.5q-97 0 -151.5 48.5t-54.5 125.5q0 116 127 187q49 27 55 36q6 7 6 20q0 30 21 51t51 21t51 -21t21 -51z" />
    <glyph glyph-name="Agrave" unicode="&#xc0;" horiz-adv-x="687" 
d="M270 829q-24 18 -27 21q-21 22 26 69t68 26q5 -5 21 -27l75 -104q24 -35 1 -60t-60 1zM684 35q7 -16 -3 -25.5t-26 -9.5h-91q-32 0 -45 31q-41 98 -44 104h-263q-7 -18 -22 -53t-22 -51q-13 -31 -49 -31h-87q-16 0 -26 9.5t-3 25.5l270 630q8 20 27 33.5t44 13.5
q22 0 42 -12.5t29 -34.5zM266 268h156q-47 120 -78 206q-38 -107 -78 -206z" />
    <glyph glyph-name="Aacute" unicode="&#xc1;" horiz-adv-x="687" 
d="M313 755q-37 -26 -60 -1t1 60l75 104q16 22 21 27q21 21 68 -26q48 -47 26 -69q-3 -3 -27 -21zM684 35q7 -16 -3 -25.5t-26 -9.5h-91q-32 0 -45 31q-41 98 -44 104h-263q-7 -18 -22 -53t-22 -51q-13 -31 -49 -31h-87q-16 0 -26 9.5t-3 25.5l270 630q8 20 27 33.5t44 13.5
q22 0 42 -12.5t29 -34.5zM266 268h156q-47 120 -78 206q-38 -107 -78 -206z" />
    <glyph glyph-name="Acircumflex" unicode="&#xc2;" horiz-adv-x="687" 
d="M230 745q-16 0 -27.5 11.5t-11.5 26.5q0 16 13 33l55 71q41 52 85 52t85 -52l55 -71q13 -17 13 -33q0 -15 -11.5 -26.5t-27.5 -11.5q-20 0 -46 23l-68 62l-68 -62q-26 -23 -46 -23zM684 35q7 -16 -3 -25.5t-26 -9.5h-91q-32 0 -45 31q-41 98 -44 104h-263q-7 -18 -22 -53
t-22 -51q-13 -31 -49 -31h-87q-16 0 -26 9.5t-3 25.5l270 630q8 20 27 33.5t44 13.5q22 0 42 -12.5t29 -34.5zM266 268h156q-47 120 -78 206q-38 -107 -78 -206z" />
    <glyph glyph-name="Adieresis" unicode="&#xc4;" horiz-adv-x="687" 
d="M250 768q-31 0 -53.5 22t-22.5 53t22.5 53t53.5 22q30 0 52 -22t22 -53t-22 -53t-52 -22zM441 768q-32 0 -54 22t-22 53t22 52.5t54 21.5q31 0 52.5 -21.5t21.5 -52.5t-21.5 -53t-52.5 -22zM684 35q7 -16 -3 -25.5t-26 -9.5h-91q-32 0 -45 31q-41 98 -44 104h-263
q-7 -18 -22 -53t-22 -51q-13 -31 -49 -31h-87q-16 0 -26 9.5t-3 25.5l270 630q8 20 27 33.5t44 13.5q22 0 42 -12.5t29 -34.5zM266 268h156q-47 120 -78 206q-38 -107 -78 -206z" />
    <glyph glyph-name="AE" unicode="&#xc6;" horiz-adv-x="1018" 
d="M913 150q34 0 57 -21t23 -54t-23 -54t-57 -21h-354q-28 0 -47.5 16.5t-19.5 44.5v75h-261l-62 -105q-18 -31 -49 -31h-87q-17 0 -27.5 9.5t-1.5 25.5l359 608q27 47 71 47h138h341q34 0 57 -21t23 -54t-23 -54t-57 -21h-260v-121h215q34 0 57 -21t23 -54t-23 -54t-57 -21
h-215v-119h260zM309 269h183v271h-24z" />
    <glyph glyph-name="Ccedilla" unicode="&#xc7;" horiz-adv-x="658" 
d="M574 207q28 0 48.5 -20t20.5 -50q0 -25 -19 -48q-70 -87 -207 -97l-21 -41q95 -12 95 -86q0 -47 -37 -73t-106 -26q-52 0 -81 18q-20 13 -20 33q0 14 10 24t25 10q6 0 28 -6t43 -6q49 0 49 21q0 22 -59 22q-33 0 -43.5 5.5t-10.5 18.5q0 4 4 14l34 73
q-132 17 -214.5 114.5t-82.5 238.5q0 154 98 254t249 100q159 0 243 -99q20 -25 20 -48q0 -30 -21 -50t-49 -20q-22 0 -44 15q-6 4 -24.5 17t-27 18t-25.5 13t-34.5 11t-39.5 3q-79 0 -132.5 -61t-53.5 -154t55 -154t135 -61q22 0 40.5 3t35 11t25.5 13.5t26.5 18t23.5 16.5
q22 15 44 15z" />
    <glyph glyph-name="Egrave" unicode="&#xc8;" horiz-adv-x="616" 
d="M269 829q-24 18 -27 21q-22 22 26 69q47 47 68 26q5 -5 21 -27l75 -104q24 -35 1 -60t-60 1zM511 150q34 0 57 -21t23 -54t-23 -54t-57 -21h-354q-28 0 -47.5 16.5t-19.5 44.5v551q0 37 22.5 57.5t56.5 20.5h1h341q34 0 57 -21t23 -54t-23 -54t-57 -21h-260v-121h215
q34 0 57 -21t23 -54t-23 -54t-57 -21h-215v-119h260z" />
    <glyph glyph-name="Eacute" unicode="&#xc9;" horiz-adv-x="616" 
d="M312 755q-37 -26 -60 -1t1 60l75 104q16 22 21 27q21 21 68 -26t26 -69q-3 -3 -27 -21zM511 150q34 0 57 -21t23 -54t-23 -54t-57 -21h-354q-28 0 -47.5 16.5t-19.5 44.5v551q0 37 22.5 57.5t56.5 20.5h1h341q34 0 57 -21t23 -54t-23 -54t-57 -21h-260v-121h215
q34 0 57 -21t23 -54t-23 -54t-57 -21h-215v-119h260z" />
    <glyph glyph-name="Ecircumflex" unicode="&#xca;" horiz-adv-x="616" 
d="M229 745q-15 0 -27 11.5t-12 26.5q0 16 13 33l55 71q41 52 85 52t85 -52l55 -71q13 -17 13 -33q0 -15 -12 -26.5t-27 -11.5q-20 0 -46 23l-68 62l-68 -62q-26 -23 -46 -23zM511 150q34 0 57 -21t23 -54t-23 -54t-57 -21h-354q-28 0 -47.5 16.5t-19.5 44.5v551
q0 37 22.5 57.5t56.5 20.5h1h341q34 0 57 -21t23 -54t-23 -54t-57 -21h-260v-121h215q34 0 57 -21t23 -54t-23 -54t-57 -21h-215v-119h260z" />
    <glyph glyph-name="Edieresis" unicode="&#xcb;" horiz-adv-x="616" 
d="M249 768q-31 0 -53.5 22t-22.5 53t22.5 53t53.5 22q30 0 52 -22t22 -53t-22 -53t-52 -22zM440 768q-32 0 -54 22t-22 53t22 52.5t54 21.5q31 0 52.5 -21.5t21.5 -52.5t-21.5 -53t-52.5 -22zM511 150q34 0 57 -21t23 -54t-23 -54t-57 -21h-354q-28 0 -47.5 16.5
t-19.5 44.5v551q0 37 22.5 57.5t56.5 20.5h1h341q34 0 57 -21t23 -54t-23 -54t-57 -21h-260v-121h215q34 0 57 -21t23 -54t-23 -54t-57 -21h-215v-119h260z" />
    <glyph glyph-name="Igrave" unicode="&#xcc;" horiz-adv-x="341" 
d="M261 754q-23 -25 -60 1l-104 74q-24 18 -27 21q-22 22 26 69q47 47 68 26q5 -5 21 -27l75 -104q24 -35 1 -60zM90 34q0 -34 34 -34h94q15 0 24 9t9 25v586q0 33 -24 56.5t-57 23.5t-56.5 -23.5t-23.5 -56.5v-586z" />
    <glyph glyph-name="Iacute" unicode="&#xcd;" horiz-adv-x="341" 
d="M80 754q-23 25 1 60l75 104q16 22 21 27q21 21 68 -26t26 -69q-3 -3 -27 -21l-104 -74q-37 -26 -60 -1zM90 34q0 -34 34 -34h94q15 0 24 9t9 25v586q0 33 -24 56.5t-57 23.5t-56.5 -23.5t-23.5 -56.5v-586z" />
    <glyph glyph-name="Icircumflex" unicode="&#xce;" horiz-adv-x="341" 
d="M171 830l68 -62q26 -23 46 -23q15 0 27 11.5t12 26.5q0 16 -13 33l-55 71q-41 52 -85 52t-85 -52l-55 -71q-13 -17 -13 -33q0 -15 12 -26.5t27 -11.5q20 0 46 23zM90 34q0 -34 34 -34h94q15 0 24 9t9 25v586q0 33 -24 56.5t-57 23.5t-56.5 -23.5t-23.5 -56.5v-586z" />
    <glyph glyph-name="Idieresis" unicode="&#xcf;" horiz-adv-x="341" 
d="M77 768q-31 0 -53.5 22t-22.5 53t22.5 53t53.5 22q30 0 52 -22t22 -53t-22 -53t-52 -22zM268 768q-32 0 -54 22t-22 53t22 52.5t54 21.5q31 0 52.5 -21.5t21.5 -52.5t-21.5 -53t-52.5 -22zM90 34q0 -34 34 -34h94q15 0 24 9t9 25v586q0 33 -24 56.5t-57 23.5t-56.5 -23.5
t-23.5 -56.5v-586z" />
    <glyph glyph-name="Ograve" unicode="&#xd2;" horiz-adv-x="777" 
d="M479 754q-23 -25 -60 1l-104 74q-24 18 -27 21q-22 22 26 69q47 47 68 26q5 -5 21 -27l75 -104q24 -35 1 -60zM389 -10q-150 0 -254.5 102.5t-104.5 251.5q0 150 104.5 252.5t254.5 102.5t254 -102.5t104 -252.5q0 -149 -104 -251.5t-254 -102.5zM388 142
q84 0 141.5 58.5t57.5 143.5q0 84 -57.5 143.5t-141.5 59.5t-141 -59.5t-57 -143.5q0 -85 57 -143.5t141 -58.5z" />
    <glyph glyph-name="Oacute" unicode="&#xd3;" horiz-adv-x="777" 
d="M298 754q-23 25 1 60l75 104q16 22 21 27q21 21 68 -26t26 -69q-3 -3 -27 -21l-104 -74q-37 -26 -60 -1zM389 -10q-150 0 -254.5 102.5t-104.5 251.5q0 150 104.5 252.5t254.5 102.5t254 -102.5t104 -252.5q0 -149 -104 -251.5t-254 -102.5zM388 142q84 0 141.5 58.5
t57.5 143.5q0 84 -57.5 143.5t-141.5 59.5t-141 -59.5t-57 -143.5q0 -85 57 -143.5t141 -58.5z" />
    <glyph glyph-name="Ocircumflex" unicode="&#xd4;" horiz-adv-x="777" 
d="M389 830l68 -62q26 -23 46 -23q15 0 27 11.5t12 26.5q0 16 -13 33l-55 71q-41 52 -85 52t-85 -52l-55 -71q-13 -17 -13 -33q0 -15 12 -26.5t27 -11.5q20 0 46 23zM389 -10q-150 0 -254.5 102.5t-104.5 251.5q0 150 104.5 252.5t254.5 102.5t254 -102.5t104 -252.5
q0 -149 -104 -251.5t-254 -102.5zM388 142q84 0 141.5 58.5t57.5 143.5q0 84 -57.5 143.5t-141.5 59.5t-141 -59.5t-57 -143.5q0 -85 57 -143.5t141 -58.5z" />
    <glyph glyph-name="Odieresis" unicode="&#xd6;" horiz-adv-x="777" 
d="M295 768q-31 0 -53.5 22t-22.5 53t22.5 53t53.5 22q30 0 52 -22t22 -53t-22 -53t-52 -22zM486 768q-32 0 -54 22t-22 53t22 52.5t54 21.5q31 0 52.5 -21.5t21.5 -52.5t-21.5 -53t-52.5 -22zM389 -10q-150 0 -254.5 102.5t-104.5 251.5q0 150 104.5 252.5t254.5 102.5
t254 -102.5t104 -252.5q0 -149 -104 -251.5t-254 -102.5zM388 142q84 0 141.5 58.5t57.5 143.5q0 84 -57.5 143.5t-141.5 59.5t-141 -59.5t-57 -143.5q0 -85 57 -143.5t141 -58.5z" />
    <glyph glyph-name="multiply" unicode="&#xd7;" 
d="M383 264l124 -124q21 -21 21 -49t-18 -47t-46 -19q-29 0 -50 21l-124 125l-125 -125q-21 -21 -50 -21q-28 0 -46 19t-18 47t21 49l124 124l-124 125q-21 21 -21 50q0 27 19 45.5t46 18.5q28 0 48 -20l126 -125l125 125q20 20 48 20q27 0 46 -18.5t19 -45.5q0 -29 -21 -50
z" />
    <glyph glyph-name="Ugrave" unicode="&#xd9;" horiz-adv-x="721" 
d="M451 754q-23 -25 -60 1l-104 74q-24 18 -27 21q-22 22 26 69q47 47 68 26q5 -5 21 -27l75 -104q24 -35 1 -60zM492 620v-324q0 -73 -36 -113.5t-95 -40.5q-58 0 -95 40t-37 114v324q0 33 -24 56.5t-57 23.5t-56.5 -23.5t-23.5 -56.5v-338q0 -133 82.5 -212.5t210.5 -79.5
q126 0 209 79t83 213v338q0 33 -24 56.5t-57 23.5t-56.5 -23.5t-23.5 -56.5z" />
    <glyph glyph-name="Uacute" unicode="&#xda;" horiz-adv-x="721" 
d="M270 754q-23 25 1 60l75 104q16 22 21 27q21 21 68 -26t26 -69q-3 -3 -27 -21l-104 -74q-37 -26 -60 -1zM492 620v-324q0 -73 -36 -113.5t-95 -40.5q-58 0 -95 40t-37 114v324q0 33 -24 56.5t-57 23.5t-56.5 -23.5t-23.5 -56.5v-338q0 -133 82.5 -212.5t210.5 -79.5
q126 0 209 79t83 213v338q0 33 -24 56.5t-57 23.5t-56.5 -23.5t-23.5 -56.5z" />
    <glyph glyph-name="Ucircumflex" unicode="&#xdb;" horiz-adv-x="721" 
d="M361 830l68 -62q26 -23 46 -23q15 0 27 11.5t12 26.5q0 16 -13 33l-55 71q-41 52 -85 52t-85 -52l-55 -71q-13 -17 -13 -33q0 -15 12 -26.5t27 -11.5q20 0 46 23zM492 620v-324q0 -73 -36 -113.5t-95 -40.5q-58 0 -95 40t-37 114v324q0 33 -24 56.5t-57 23.5t-56.5 -23.5
t-23.5 -56.5v-338q0 -133 82.5 -212.5t210.5 -79.5q126 0 209 79t83 213v338q0 33 -24 56.5t-57 23.5t-56.5 -23.5t-23.5 -56.5z" />
    <glyph glyph-name="Udieresis" unicode="&#xdc;" horiz-adv-x="721" 
d="M267 768q-31 0 -53.5 22t-22.5 53t22.5 53t53.5 22q30 0 52 -22t22 -53t-22 -53t-52 -22zM458 768q-32 0 -54 22t-22 53t22 52.5t54 21.5q31 0 52.5 -21.5t21.5 -52.5t-21.5 -53t-52.5 -22zM492 620v-324q0 -73 -36 -113.5t-95 -40.5q-58 0 -95 40t-37 114v324
q0 33 -24 56.5t-57 23.5t-56.5 -23.5t-23.5 -56.5v-338q0 -133 82.5 -212.5t210.5 -79.5q126 0 209 79t83 213v338q0 33 -24 56.5t-57 23.5t-56.5 -23.5t-23.5 -56.5z" />
    <glyph glyph-name="Yacute" unicode="&#xdd;" horiz-adv-x="584" 
d="M261 755q-37 -26 -60 -1t1 60l75 104q16 22 21 27q21 21 68 -26q48 -47 26 -69q-3 -3 -27 -21zM582 624q0 -26 -15 -46l-199 -262v-288q0 -28 -28 -28h-105q-28 0 -28 28v302l-189 248q-16 22 -16 46q0 31 22.5 53.5t57.5 22.5q38 0 65 -36l146 -193l146 193q27 36 63 36
q32 0 56 -23t24 -53z" />
    <glyph glyph-name="Thorn" unicode="&#xde;" 
d="M381 700q106 0 175 -67t69 -171q0 -113 -68 -180.5t-176 -67.5h-130v-180q0 -16 -9 -25t-24 -9h-94q-34 0 -34 34v586q0 33 23.5 56.5t56.5 23.5h211zM370 358q40 0 68.5 28.5t28.5 69.5q0 40 -28.5 68.5t-68.5 28.5h-119v-195h119z" />
    <glyph glyph-name="agrave" unicode="&#xe0;" horiz-adv-x="640" 
d="M221 667q-24 18 -27 21q-22 22 26 69q47 47 68 26q5 -5 21 -27l75 -104q24 -35 1 -60t-60 1zM506 538q30 0 51 -21t21 -51v-427q0 -39 -38 -39h-66q-39 0 -39 39v7q-59 -56 -140 -56q-109 0 -188 80.5t-79 194.5q0 113 79 193t188 80q84 0 143 -50q7 22 25.5 36t42.5 14z
M301 130q56 0 95 39t39 96q0 56 -39 94.5t-95 38.5q-55 0 -94.5 -39t-39.5 -94q0 -57 39.5 -96t94.5 -39z" />
    <glyph glyph-name="aacute" unicode="&#xe1;" horiz-adv-x="640" 
d="M264 593q-37 -26 -60 -1t1 60l75 104q16 22 21 27q21 21 68 -26t26 -69q-3 -3 -27 -21zM506 538q30 0 51 -21t21 -51v-427q0 -39 -38 -39h-66q-39 0 -39 39v7q-59 -56 -140 -56q-109 0 -188 80.5t-79 194.5q0 113 79 193t188 80q84 0 143 -50q7 22 25.5 36t42.5 14z
M301 130q56 0 95 39t39 96q0 56 -39 94.5t-95 38.5q-55 0 -94.5 -39t-39.5 -94q0 -57 39.5 -96t94.5 -39z" />
    <glyph glyph-name="acircumflex" unicode="&#xe2;" horiz-adv-x="640" 
d="M181 583q-15 0 -27 11.5t-12 26.5q0 16 13 33l55 71q41 52 85 52t85 -52l55 -71q13 -17 13 -33q0 -15 -12 -26.5t-27 -11.5q-20 0 -46 23l-68 62l-68 -62q-26 -23 -46 -23zM506 538q30 0 51 -21t21 -51v-427q0 -39 -38 -39h-66q-39 0 -39 39v7q-59 -56 -140 -56
q-109 0 -188 80.5t-79 194.5q0 113 79 193t188 80q84 0 143 -50q7 22 25.5 36t42.5 14zM301 130q56 0 95 39t39 96q0 56 -39 94.5t-95 38.5q-55 0 -94.5 -39t-39.5 -94q0 -57 39.5 -96t94.5 -39z" />
    <glyph glyph-name="adieresis" unicode="&#xe4;" horiz-adv-x="640" 
d="M201 606q-31 0 -53.5 22t-22.5 53t22.5 53t53.5 22q30 0 52 -22t22 -53t-22 -53t-52 -22zM392 606q-32 0 -54 22t-22 53t22 52.5t54 21.5q31 0 52.5 -21.5t21.5 -52.5t-21.5 -53t-52.5 -22zM506 538q30 0 51 -21t21 -51v-427q0 -39 -38 -39h-66q-39 0 -39 39v7
q-59 -56 -140 -56q-109 0 -188 80.5t-79 194.5q0 113 79 193t188 80q84 0 143 -50q7 22 25.5 36t42.5 14zM301 130q56 0 95 39t39 96q0 56 -39 94.5t-95 38.5q-55 0 -94.5 -39t-39.5 -94q0 -57 39.5 -96t94.5 -39z" />
    <glyph glyph-name="ae" unicode="&#xe6;" horiz-adv-x="1007" 
d="M987 285q0 -40 -16.5 -60t-41.5 -20h-342q13 -40 55 -64.5t98 -24.5q61 0 109 28q21 12 40 12q26 0 45 -18.5t19 -46.5q0 -39 -44 -63q-65 -37 -156 -37q-114 0 -171 54v-6q0 -39 -36 -39h-66q-39 0 -39 39v7q-59 -56 -140 -56q-113 0 -193 80t-80 195q0 113 80 193
t193 80q84 0 143 -50q7 22 25.5 36t42.5 14t42.5 -14t24.5 -37q59 51 158 51q107 0 178.5 -77.5t71.5 -175.5zM584 308h261q-9 41 -45.5 69.5t-84.5 28.5t-85 -28.5t-46 -69.5zM307 130q56 0 95 39t39 96q0 56 -39 94.5t-95 38.5q-55 0 -94.5 -39t-39.5 -94q0 -57 39.5 -96
t94.5 -39z" />
    <glyph glyph-name="ccedilla" unicode="&#xe7;" horiz-adv-x="519" 
d="M440 159q27 0 46.5 -20t19.5 -48q0 -38 -43 -63q-65 -36 -151 -38l-20 -39q95 -12 95 -86q0 -47 -37 -73t-106 -26q-52 0 -81 18q-20 13 -20 33q0 14 10 24t25 10q6 0 28 -6t43 -6q49 0 49 21q0 22 -59 22q-33 0 -43.5 5.5t-10.5 18.5q0 4 4 14l38 80q-89 24 -144 96.5
t-55 166.5q0 114 77.5 194t196.5 80q87 0 158 -40q43 -25 43 -63q0 -28 -19.5 -48t-46.5 -20q-17 0 -39 12q-41 22 -85 22q-56 0 -96.5 -37.5t-40.5 -98.5t40.5 -99.5t95.5 -38.5q50 0 89 21q22 12 39 12z" />
    <glyph glyph-name="egrave" unicode="&#xe8;" horiz-adv-x="593" 
d="M229 667q-24 18 -27 21q-22 22 26 69q47 47 68 26q5 -5 21 -27l75 -104q24 -35 1 -60t-60 1zM573 285q0 -40 -16.5 -60t-41.5 -20h-342q13 -40 55 -64.5t98 -24.5q61 0 109 28q21 12 40 12q26 0 45 -18.5t19 -46.5q0 -40 -44 -64q-65 -37 -176 -37q-128 0 -209.5 76
t-81.5 196q0 115 79 195.5t196 80.5q109 0 189.5 -78.5t80.5 -174.5zM170 308h261q-9 41 -45.5 69.5t-84.5 28.5t-85 -28.5t-46 -69.5z" />
    <glyph glyph-name="eacute" unicode="&#xe9;" horiz-adv-x="593" 
d="M272 593q-37 -26 -60 -1t1 60l75 104q16 22 21 27q21 21 68 -26t26 -69q-3 -3 -27 -21zM573 285q0 -40 -16.5 -60t-41.5 -20h-342q13 -40 55 -64.5t98 -24.5q61 0 109 28q21 12 40 12q26 0 45 -18.5t19 -46.5q0 -40 -44 -64q-65 -37 -176 -37q-128 0 -209.5 76t-81.5 196
q0 115 79 195.5t196 80.5q109 0 189.5 -78.5t80.5 -174.5zM170 308h261q-9 41 -45.5 69.5t-84.5 28.5t-85 -28.5t-46 -69.5z" />
    <glyph glyph-name="ecircumflex" unicode="&#xea;" horiz-adv-x="593" 
d="M189 583q-15 0 -27 11.5t-12 26.5q0 16 13 33l55 71q41 52 85 52t85 -52l55 -71q13 -17 13 -33q0 -15 -12 -26.5t-27 -11.5q-20 0 -46 23l-68 62l-68 -62q-26 -23 -46 -23zM573 285q0 -40 -16.5 -60t-41.5 -20h-342q13 -40 55 -64.5t98 -24.5q61 0 109 28q21 12 40 12
q26 0 45 -18.5t19 -46.5q0 -40 -44 -64q-65 -37 -176 -37q-128 0 -209.5 76t-81.5 196q0 115 79 195.5t196 80.5q109 0 189.5 -78.5t80.5 -174.5zM170 308h261q-9 41 -45.5 69.5t-84.5 28.5t-85 -28.5t-46 -69.5z" />
    <glyph glyph-name="edieresis" unicode="&#xeb;" horiz-adv-x="593" 
d="M209 606q-31 0 -53.5 22t-22.5 53t22.5 53t53.5 22q30 0 52 -22t22 -53t-22 -53t-52 -22zM400 606q-32 0 -54 22t-22 53t22 52.5t54 21.5q31 0 52.5 -21.5t21.5 -52.5t-21.5 -53t-52.5 -22zM573 285q0 -40 -16.5 -60t-41.5 -20h-342q13 -40 55 -64.5t98 -24.5
q61 0 109 28q21 12 40 12q26 0 45 -18.5t19 -46.5q0 -40 -44 -64q-65 -37 -176 -37q-128 0 -209.5 76t-81.5 196q0 115 79 195.5t196 80.5q109 0 189.5 -78.5t80.5 -174.5zM170 308h261q-9 41 -45.5 69.5t-84.5 28.5t-85 -28.5t-46 -69.5z" />
    <glyph glyph-name="igrave" unicode="&#xec;" horiz-adv-x="273" 
d="M226 592q-23 -25 -60 1l-104 74q-24 18 -27 21q-21 22 26 69t68 26q5 -5 21 -27l75 -104q24 -35 1 -60zM208 466v-427q0 -39 -38 -39h-66q-39 0 -39 39v427q0 30 21 51t50 21q30 0 51 -21t21 -51z" />
    <glyph glyph-name="iacute" unicode="&#xed;" horiz-adv-x="273" 
d="M45 592q-23 25 1 60l75 104q16 22 21 27q21 21 68 -26q48 -47 26 -69q-3 -3 -27 -21l-104 -74q-37 -26 -60 -1zM208 466v-427q0 -39 -38 -39h-66q-39 0 -39 39v427q0 30 21 51t50 21q30 0 51 -21t21 -51z" />
    <glyph glyph-name="icircumflex" unicode="&#xee;" horiz-adv-x="273" 
d="M136 668l68 -62q26 -23 46 -23q16 0 27.5 11.5t11.5 26.5q0 16 -13 33l-55 71q-41 52 -85 52t-85 -52l-55 -71q-13 -17 -13 -33q0 -15 11.5 -26.5t27.5 -11.5q20 0 46 23zM208 466v-427q0 -39 -38 -39h-66q-39 0 -39 39v427q0 30 21 51t50 21q30 0 51 -21t21 -51z" />
    <glyph glyph-name="idieresis" unicode="&#xef;" horiz-adv-x="273" 
d="M42 606q-31 0 -53.5 22t-22.5 53t22.5 53t53.5 22q30 0 52 -22t22 -53t-22 -53t-52 -22zM233 606q-32 0 -54 22t-22 53t22 52.5t54 21.5q31 0 52.5 -21.5t21.5 -52.5t-21.5 -53t-52.5 -22zM208 466v-427q0 -39 -38 -39h-66q-39 0 -39 39v427q0 30 21 51t50 21
q30 0 51 -21t21 -51z" />
    <glyph glyph-name="ograve" unicode="&#xf2;" horiz-adv-x="602" 
d="M391 592q-23 -25 -60 1l-104 74q-24 18 -27 21q-22 22 26 69q47 47 68 26q5 -5 21 -27l75 -104q24 -35 1 -60zM301 -10q-113 0 -193 80t-80 195q0 113 80 193t193 80t193 -80t80 -193q0 -115 -80 -195t-193 -80zM301 130q56 0 95 39t39 96q0 56 -39 94.5t-95 38.5
q-55 0 -94.5 -39t-39.5 -94q0 -57 39.5 -96t94.5 -39z" />
    <glyph glyph-name="oacute" unicode="&#xf3;" horiz-adv-x="602" 
d="M210 592q-23 25 1 60l75 104q16 22 21 27q21 21 68 -26t26 -69q-3 -3 -27 -21l-104 -74q-37 -26 -60 -1zM301 -10q-113 0 -193 80t-80 195q0 113 80 193t193 80t193 -80t80 -193q0 -115 -80 -195t-193 -80zM301 130q56 0 95 39t39 96q0 56 -39 94.5t-95 38.5
q-55 0 -94.5 -39t-39.5 -94q0 -57 39.5 -96t94.5 -39z" />
    <glyph glyph-name="ocircumflex" unicode="&#xf4;" horiz-adv-x="602" 
d="M301 668l68 -62q26 -23 46 -23q15 0 27 11.5t12 26.5q0 16 -13 33l-55 71q-41 52 -85 52t-85 -52l-55 -71q-13 -17 -13 -33q0 -15 12 -26.5t27 -11.5q20 0 46 23zM301 -10q-113 0 -193 80t-80 195q0 113 80 193t193 80t193 -80t80 -193q0 -115 -80 -195t-193 -80z
M301 130q56 0 95 39t39 96q0 56 -39 94.5t-95 38.5q-55 0 -94.5 -39t-39.5 -94q0 -57 39.5 -96t94.5 -39z" />
    <glyph glyph-name="odieresis" unicode="&#xf6;" horiz-adv-x="602" 
d="M207 606q-31 0 -53.5 22t-22.5 53t22.5 53t53.5 22q30 0 52 -22t22 -53t-22 -53t-52 -22zM398 606q-32 0 -54 22t-22 53t22 52.5t54 21.5q31 0 52.5 -21.5t21.5 -52.5t-21.5 -53t-52.5 -22zM301 -10q-113 0 -193 80t-80 195q0 113 80 193t193 80t193 -80t80 -193
q0 -115 -80 -195t-193 -80zM301 130q56 0 95 39t39 96q0 56 -39 94.5t-95 38.5q-55 0 -94.5 -39t-39.5 -94q0 -57 39.5 -96t94.5 -39z" />
    <glyph glyph-name="divide" unicode="&#xf7;" 
d="M294 373q-34 0 -58.5 24.5t-24.5 58.5t24.5 58t58.5 24t58 -24t24 -58t-24 -58.5t-58 -24.5zM483 199q27 0 45.5 18.5t18.5 45.5q0 26 -18.5 45t-45.5 19h-391q-27 0 -45.5 -19t-18.5 -45q0 -27 18.5 -45.5t45.5 -18.5h391zM294 -10q-34 0 -58.5 24t-24.5 59
q0 34 24.5 58t58.5 24t58 -24t24 -58t-24 -58.5t-58 -24.5z" />
    <glyph glyph-name="ugrave" unicode="&#xf9;" horiz-adv-x="605" 
d="M228 667q-24 18 -27 21q-21 22 26 69t68 26q5 -5 21 -27l75 -104q24 -35 1 -60t-60 1zM470 538q30 0 51 -21t21 -51v-438q0 -28 -28 -28h-87q-28 0 -28 28v33q-61 -71 -150 -71t-140.5 60t-51.5 149v267q0 30 21 51t50 21q30 0 51 -21t21 -51v-225q0 -49 27.5 -76.5
t71.5 -27.5t72 28t28 76v225q0 30 21 51t50 21z" />
    <glyph glyph-name="uacute" unicode="&#xfa;" horiz-adv-x="605" 
d="M271 593q-37 -26 -60 -1t1 60l75 104q16 22 21 27q21 21 68 -26q48 -47 26 -69q-3 -3 -27 -21zM470 538q30 0 51 -21t21 -51v-438q0 -28 -28 -28h-87q-28 0 -28 28v33q-61 -71 -150 -71t-140.5 60t-51.5 149v267q0 30 21 51t50 21q30 0 51 -21t21 -51v-225
q0 -49 27.5 -76.5t71.5 -27.5t72 28t28 76v225q0 30 21 51t50 21z" />
    <glyph glyph-name="ucircumflex" unicode="&#xfb;" horiz-adv-x="605" 
d="M188 583q-16 0 -27.5 11.5t-11.5 26.5q0 16 13 33l55 71q41 52 85 52t85 -52l55 -71q13 -17 13 -33q0 -15 -11.5 -26.5t-27.5 -11.5q-20 0 -46 23l-68 62l-68 -62q-26 -23 -46 -23zM470 538q30 0 51 -21t21 -51v-438q0 -28 -28 -28h-87q-28 0 -28 28v33q-61 -71 -150 -71
t-140.5 60t-51.5 149v267q0 30 21 51t50 21q30 0 51 -21t21 -51v-225q0 -49 27.5 -76.5t71.5 -27.5t72 28t28 76v225q0 30 21 51t50 21z" />
    <glyph glyph-name="udieresis" unicode="&#xfc;" horiz-adv-x="605" 
d="M208 606q-31 0 -53.5 22t-22.5 53t22.5 53t53.5 22q30 0 52 -22t22 -53t-22 -53t-52 -22zM399 606q-32 0 -54 22t-22 53t22 52.5t54 21.5q31 0 52.5 -21.5t21.5 -52.5t-21.5 -53t-52.5 -22zM470 538q30 0 51 -21t21 -51v-438q0 -28 -28 -28h-87q-28 0 -28 28v33
q-61 -71 -150 -71t-140.5 60t-51.5 149v267q0 30 21 51t50 21q30 0 51 -21t21 -51v-225q0 -49 27.5 -76.5t71.5 -27.5t72 28t28 76v225q0 30 21 51t50 21z" />
    <glyph glyph-name="yacute" unicode="&#xfd;" horiz-adv-x="540" 
d="M239 593q-37 -26 -60 -1t1 60l75 104q16 22 21 27q21 21 68 -26q48 -47 26 -69q-3 -3 -27 -21zM443 538q32 0 54.5 -23t22.5 -54q0 -20 -9 -38l-168 -382l-3 -6h1l-31 -69q-55 -123 -148 -162q-35 -14 -68 -14q-41 0 -65 20.5t-24 51.5q0 29 21 50t50 21q36 0 59 21
q32 30 60 92l-166 377q-9 18 -9 38q0 31 22.5 54t54.5 23q53 0 75 -57q78 -202 98 -254q20 52 98 254q22 57 75 57z" />
    <glyph glyph-name="ydieresis" unicode="&#xff;" horiz-adv-x="540" 
d="M176 606q-31 0 -53.5 22t-22.5 53t22.5 53t53.5 22q30 0 52 -22t22 -53t-22 -53t-52 -22zM367 606q-32 0 -54 22t-22 53t22 52.5t54 21.5q31 0 52.5 -21.5t21.5 -52.5t-21.5 -53t-52.5 -22zM443 538q32 0 54.5 -23t22.5 -54q0 -20 -9 -38l-168 -382l-3 -6h1l-31 -69
q-55 -123 -148 -162q-35 -14 -68 -14q-41 0 -65 20.5t-24 51.5q0 29 21 50t50 21q36 0 59 21q32 30 60 92l-166 377q-9 18 -9 38q0 31 22.5 54t54.5 23q53 0 75 -57q78 -202 98 -254q20 52 98 254q22 57 75 57z" />
    <glyph glyph-name="dotlessi" unicode="&#x131;" horiz-adv-x="273" 
d="M208 466v-427q0 -39 -38 -39h-66q-39 0 -39 39v427q0 30 21 51t50 21q30 0 51 -21t21 -51z" />
    <glyph glyph-name="OE" unicode="&#x152;" horiz-adv-x="1113" 
d="M1008 150q34 0 57 -21t23 -54t-23 -54t-57 -21h-354q-25 0 -43.5 13t-22.5 36q-88 -59 -199 -59q-150 0 -254.5 102.5t-104.5 251.5q0 150 104.5 252.5t254.5 102.5q110 0 202 -60q15 51 75 51h1h341q34 0 57 -21t23 -54t-23 -54t-57 -21h-260v-121h215q34 0 57 -21
t23 -54t-23 -54t-57 -21h-215v-119h260zM388 142q84 0 141.5 58.5t57.5 143.5q0 84 -57.5 143.5t-141.5 59.5t-141 -59.5t-57 -143.5q0 -85 57 -143.5t141 -58.5z" />
    <glyph glyph-name="oe" unicode="&#x153;" horiz-adv-x="1000" 
d="M980 285q0 -40 -16.5 -60t-41.5 -20h-342q13 -40 55 -64.5t98 -24.5q61 0 109 28q21 12 40 12q26 0 45 -18.5t19 -46.5q0 -39 -44 -63q-65 -37 -176 -37q-140 0 -223 89q-80 -90 -202 -90q-113 0 -193 80t-80 195q0 113 80 193t193 80q122 0 203 -91q81 91 206 91
q109 0 189.5 -78.5t80.5 -174.5zM577 308h261q-9 41 -45.5 69.5t-84.5 28.5t-85 -28.5t-46 -69.5zM301 130q56 0 95 39t39 96q0 56 -39 94.5t-95 38.5q-55 0 -94.5 -39t-39.5 -94q0 -57 39.5 -96t94.5 -39z" />
    <glyph glyph-name="Wcircumflex" unicode="&#x174;" horiz-adv-x="1016" 
d="M394 745q-16 0 -27.5 11.5t-11.5 26.5q0 16 13 33l55 71q41 52 85 52t85 -52l55 -71q13 -17 13 -33q0 -15 -11.5 -26.5t-27.5 -11.5q-20 0 -46 23l-68 62l-68 -62q-26 -23 -46 -23zM916 700q36 0 61.5 -26t25.5 -62q0 -20 -23 -76l-195 -484q-13 -33 -29 -47.5t-47 -14.5
t-47.5 15t-27.5 47l-126 352l-126 -352q-11 -32 -27.5 -47t-47.5 -15t-46.5 14.5t-29.5 47.5l-195 484q-23 56 -23 76q0 36 25.5 62t61.5 26q61 0 82 -57l128 -342l115 337q11 29 33.5 45.5t49.5 16.5q29 0 51 -16.5t32 -45.5l115 -337l128 342q21 57 82 57z" />
    <glyph glyph-name="wcircumflex" unicode="&#x175;" horiz-adv-x="870" 
d="M321 583q-15 0 -27 11.5t-12 26.5q0 16 13 33l55 71q41 52 85 52t85 -52l55 -71q13 -17 13 -33q0 -15 -12 -26.5t-27 -11.5q-20 0 -46 23l-68 62l-68 -62q-26 -23 -46 -23zM773 538q32 0 54.5 -23t22.5 -54q0 -15 -9 -38l-164 -382q-23 -51 -73 -51t-73 51l-96 223
l-96 -223q-23 -51 -73 -51t-73 51l-164 382q-9 23 -9 38q0 31 22.5 54t54.5 23q53 0 75 -56l94 -254q62 168 94 253q22 57 75 57t75 -57q32 -85 94 -253l94 254q22 56 75 56z" />
    <glyph glyph-name="Ycircumflex" unicode="&#x176;" horiz-adv-x="584" 
d="M178 745q-16 0 -27.5 11.5t-11.5 26.5q0 16 13 33l55 71q41 52 85 52t85 -52l55 -71q13 -17 13 -33q0 -15 -11.5 -26.5t-27.5 -11.5q-20 0 -46 23l-68 62l-68 -62q-26 -23 -46 -23zM582 624q0 -26 -15 -46l-199 -262v-288q0 -28 -28 -28h-105q-28 0 -28 28v302l-189 248
q-16 22 -16 46q0 31 22.5 53.5t57.5 22.5q38 0 65 -36l146 -193l146 193q27 36 63 36q32 0 56 -23t24 -53z" />
    <glyph glyph-name="ycircumflex" unicode="&#x177;" horiz-adv-x="540" 
d="M156 583q-16 0 -27.5 11.5t-11.5 26.5q0 16 13 33l55 71q41 52 85 52t85 -52l55 -71q13 -17 13 -33q0 -15 -11.5 -26.5t-27.5 -11.5q-20 0 -46 23l-68 62l-68 -62q-26 -23 -46 -23zM443 538q32 0 54.5 -23t22.5 -54q0 -20 -9 -38l-168 -382l-3 -6h1l-31 -69
q-55 -123 -148 -162q-35 -14 -68 -14q-41 0 -65 20.5t-24 51.5q0 29 21 50t50 21q36 0 59 21q32 30 60 92l-166 377q-9 18 -9 38q0 31 22.5 54t54.5 23q53 0 75 -57q78 -202 98 -254q20 52 98 254q22 57 75 57z" />
    <glyph glyph-name="Ydieresis" unicode="&#x178;" horiz-adv-x="584" 
d="M198 768q-31 0 -53.5 22t-22.5 53t22.5 53t53.5 22q30 0 52 -22t22 -53t-22 -53t-52 -22zM389 768q-32 0 -54 22t-22 53t22 52.5t54 21.5q31 0 52.5 -21.5t21.5 -52.5t-21.5 -53t-52.5 -22zM582 624q0 -26 -15 -46l-199 -262v-288q0 -28 -28 -28h-105q-28 0 -28 28v302
l-189 248q-16 22 -16 46q0 31 22.5 53.5t57.5 22.5q38 0 65 -36l146 -193l146 193q27 36 63 36q32 0 56 -23t24 -53z" />
    <glyph glyph-name="circumflex" unicode="&#x2c6;" 
d="M244 668l68 -62q26 -23 46 -23q16 0 27.5 11.5t11.5 26.5q0 16 -13 33l-55 71q-41 52 -85 52t-85 -52l-55 -71q-13 -17 -13 -33q0 -15 11.5 -26.5t27.5 -11.5q20 0 46 23z" />
    <glyph glyph-name="dotaccent" unicode="&#x2d9;" 
d="M155 592q-35 0 -59 24t-24 59q0 34 24.5 58t58.5 24t58 -24t24 -58t-24 -58.5t-58 -24.5z" />
    <glyph glyph-name="gravecomb" unicode="&#x300;" horiz-adv-x="0" 
d="M-155 592q-23 -25 -60 1l-104 74q-24 18 -27 21q-22 22 26 69q47 47 68 26q5 -5 21 -27l75 -104q24 -35 1 -60z" />
    <glyph glyph-name="acutecomb" unicode="&#x301;" horiz-adv-x="0" 
d="M-426 592q-23 25 1 60l75 104q16 22 21 27q21 21 68 -26t26 -69q-3 -3 -27 -21l-104 -74q-37 -26 -60 -1z" />
    <glyph glyph-name="uni0302" unicode="&#x302;" horiz-adv-x="0" 
d="M-356 668l68 -62q26 -23 46 -23q16 0 27.5 11.5t11.5 26.5q0 16 -13 33l-55 71q-41 52 -85 52t-85 -52l-55 -71q-13 -17 -13 -33q0 -15 11.5 -26.5t27.5 -11.5q20 0 46 23z" />
    <glyph glyph-name="uni0307" unicode="&#x307;" horiz-adv-x="0" 
d="M-148 592q-34 0 -58.5 24t-24.5 59q0 34 24.5 58t58.5 24t58 -24t24 -58t-24 -58.5t-58 -24.5z" />
    <glyph glyph-name="uni0308" unicode="&#x308;" horiz-adv-x="0" 
d="M-391 606q-31 0 -53.5 22t-22.5 53t22.5 53t53.5 22q30 0 52 -22t22 -53t-22 -53t-52 -22zM-200 606q-32 0 -54 22t-22 53t22 52.5t54 21.5q31 0 52.5 -21.5t21.5 -52.5t-21.5 -53t-52.5 -22z" />
    <glyph glyph-name="uni0327" unicode="&#x327;" horiz-adv-x="0" 
d="M-244 -49q95 -12 95 -86q0 -47 -37 -73t-106 -26q-52 0 -81 18q-20 13 -20 33q0 14 10 24t25 10q6 0 28 -6t43 -6q49 0 49 21q0 22 -59 22q-33 0 -43.5 5.5t-10.5 18.5q0 4 4 14l50 106h91z" />
    <glyph glyph-name="Wgrave" unicode="&#x1e80;" horiz-adv-x="1016" 
d="M434 829q-24 18 -27 21q-21 22 26 69t68 26q5 -5 21 -27l75 -104q24 -35 1 -60t-60 1zM916 700q36 0 61.5 -26t25.5 -62q0 -20 -23 -76l-195 -484q-13 -33 -29 -47.5t-47 -14.5t-47.5 15t-27.5 47l-126 352l-126 -352q-11 -32 -27.5 -47t-47.5 -15t-46.5 14.5t-29.5 47.5
l-195 484q-23 56 -23 76q0 36 25.5 62t61.5 26q61 0 82 -57l128 -342l115 337q11 29 33.5 45.5t49.5 16.5q29 0 51 -16.5t32 -45.5l115 -337l128 342q21 57 82 57z" />
    <glyph glyph-name="wgrave" unicode="&#x1e81;" horiz-adv-x="870" 
d="M361 667q-24 18 -27 21q-22 22 26 69q47 47 68 26q5 -5 21 -27l75 -104q24 -35 1 -60t-60 1zM773 538q32 0 54.5 -23t22.5 -54q0 -15 -9 -38l-164 -382q-23 -51 -73 -51t-73 51l-96 223l-96 -223q-23 -51 -73 -51t-73 51l-164 382q-9 23 -9 38q0 31 22.5 54t54.5 23
q53 0 75 -56l94 -254q62 168 94 253q22 57 75 57t75 -57q32 -85 94 -253l94 254q22 56 75 56z" />
    <glyph glyph-name="Wacute" unicode="&#x1e82;" horiz-adv-x="1016" 
d="M477 755q-37 -26 -60 -1t1 60l75 104q16 22 21 27q21 21 68 -26q48 -47 26 -69q-3 -3 -27 -21zM916 700q36 0 61.5 -26t25.5 -62q0 -20 -23 -76l-195 -484q-13 -33 -29 -47.5t-47 -14.5t-47.5 15t-27.5 47l-126 352l-126 -352q-11 -32 -27.5 -47t-47.5 -15t-46.5 14.5
t-29.5 47.5l-195 484q-23 56 -23 76q0 36 25.5 62t61.5 26q61 0 82 -57l128 -342l115 337q11 29 33.5 45.5t49.5 16.5q29 0 51 -16.5t32 -45.5l115 -337l128 342q21 57 82 57z" />
    <glyph glyph-name="wacute" unicode="&#x1e83;" horiz-adv-x="870" 
d="M404 593q-37 -26 -60 -1t1 60l75 104q16 22 21 27q21 21 68 -26t26 -69q-3 -3 -27 -21zM773 538q32 0 54.5 -23t22.5 -54q0 -15 -9 -38l-164 -382q-23 -51 -73 -51t-73 51l-96 223l-96 -223q-23 -51 -73 -51t-73 51l-164 382q-9 23 -9 38q0 31 22.5 54t54.5 23
q53 0 75 -56l94 -254q62 168 94 253q22 57 75 57t75 -57q32 -85 94 -253l94 254q22 56 75 56z" />
    <glyph glyph-name="Wdieresis" unicode="&#x1e84;" horiz-adv-x="1016" 
d="M414 768q-31 0 -53.5 22t-22.5 53t22.5 53t53.5 22q30 0 52 -22t22 -53t-22 -53t-52 -22zM605 768q-32 0 -54 22t-22 53t22 52.5t54 21.5q31 0 52.5 -21.5t21.5 -52.5t-21.5 -53t-52.5 -22zM916 700q36 0 61.5 -26t25.5 -62q0 -20 -23 -76l-195 -484q-13 -33 -29 -47.5
t-47 -14.5t-47.5 15t-27.5 47l-126 352l-126 -352q-11 -32 -27.5 -47t-47.5 -15t-46.5 14.5t-29.5 47.5l-195 484q-23 56 -23 76q0 36 25.5 62t61.5 26q61 0 82 -57l128 -342l115 337q11 29 33.5 45.5t49.5 16.5q29 0 51 -16.5t32 -45.5l115 -337l128 342q21 57 82 57z" />
    <glyph glyph-name="wdieresis" unicode="&#x1e85;" horiz-adv-x="870" 
d="M341 606q-31 0 -53.5 22t-22.5 53t22.5 53t53.5 22q30 0 52 -22t22 -53t-22 -53t-52 -22zM532 606q-32 0 -54 22t-22 53t22 52.5t54 21.5q31 0 52.5 -21.5t21.5 -52.5t-21.5 -53t-52.5 -22zM773 538q32 0 54.5 -23t22.5 -54q0 -15 -9 -38l-164 -382q-23 -51 -73 -51
t-73 51l-96 223l-96 -223q-23 -51 -73 -51t-73 51l-164 382q-9 23 -9 38q0 31 22.5 54t54.5 23q53 0 75 -56l94 -254q62 168 94 253q22 57 75 57t75 -57q32 -85 94 -253l94 254q22 56 75 56z" />
    <glyph glyph-name="Ygrave" unicode="&#x1ef2;" horiz-adv-x="584" 
d="M218 829q-24 18 -27 21q-21 22 26 69t68 26q5 -5 21 -27l75 -104q24 -35 1 -60t-60 1zM582 624q0 -26 -15 -46l-199 -262v-288q0 -28 -28 -28h-105q-28 0 -28 28v302l-189 248q-16 22 -16 46q0 31 22.5 53.5t57.5 22.5q38 0 65 -36l146 -193l146 193q27 36 63 36
q32 0 56 -23t24 -53z" />
    <glyph glyph-name="ygrave" unicode="&#x1ef3;" horiz-adv-x="540" 
d="M196 667q-24 18 -27 21q-21 22 26 69t68 26q5 -5 21 -27l75 -104q24 -35 1 -60t-60 1zM443 538q32 0 54.5 -23t22.5 -54q0 -20 -9 -38l-168 -382l-3 -6h1l-31 -69q-55 -123 -148 -162q-35 -14 -68 -14q-41 0 -65 20.5t-24 51.5q0 29 21 50t50 21q36 0 59 21q32 30 60 92
l-166 377q-9 18 -9 38q0 31 22.5 54t54.5 23q53 0 75 -57q78 -202 98 -254q20 52 98 254q22 57 75 57z" />
    <glyph glyph-name="endash" unicode="&#x2013;" horiz-adv-x="590" 
d="M485 325h-380q-25 0 -43 -17.5t-18 -42.5q0 -26 17.5 -44t43.5 -18h380q26 0 43.5 18t17.5 44q0 25 -18 42.5t-43 17.5z" />
    <glyph glyph-name="emdash" unicode="&#x2014;" horiz-adv-x="928" 
d="M845 325h-740q-25 0 -43 -17.5t-18 -42.5q0 -26 17.5 -44t43.5 -18h740q26 0 43.5 18t17.5 44q0 25 -18 42.5t-43 17.5z" />
    <glyph glyph-name="quoteleft" unicode="&#x2018;" horiz-adv-x="259" 
d="M137 601q34 -3 54.5 -28t20.5 -56q0 -32 -24 -56.5t-60 -24.5q-38 0 -62.5 27.5t-24.5 70.5q0 58 42 107t104 49q10 0 15.5 -6.5t5.5 -14.5q0 -13 -13 -19q-43 -18 -58 -49zM129 564v-7v7z" />
    <glyph glyph-name="quoteright" unicode="&#x2019;" horiz-adv-x="259" 
d="M131 690q38 0 62.5 -27.5t24.5 -70.5q0 -58 -42 -107t-104 -49q-10 0 -15.5 6.5t-5.5 14.5q0 13 13 19q43 18 58 49q-34 3 -54.5 28t-20.5 56q0 32 24 56.5t60 24.5zM130 562v7v-7z" />
    <glyph glyph-name="quotesinglbase" unicode="&#x201a;" horiz-adv-x="259" 
d="M131 147q38 0 62.5 -27.5t24.5 -70.5q0 -58 -42 -107t-104 -49q-10 0 -15.5 6.5t-5.5 14.5q0 13 13 19q43 18 58 49q-34 3 -54.5 28t-20.5 56q0 32 24 56.5t60 24.5zM130 19v7v-7z" />
    <glyph glyph-name="quotedblleft" unicode="&#x201c;" horiz-adv-x="479" 
d="M137 601q34 -3 54.5 -28t20.5 -56q0 -32 -24 -56.5t-60 -24.5q-38 0 -62.5 27.5t-24.5 70.5q0 58 42 107t104 49q10 0 15.5 -6.5t5.5 -14.5q0 -13 -13 -19q-43 -18 -58 -49zM357 601q34 -3 54.5 -28t20.5 -56q0 -32 -24 -56.5t-60 -24.5q-38 0 -62.5 27.5t-24.5 70.5
q0 58 42 107t104 49q10 0 15.5 -6.5t5.5 -14.5q0 -13 -13 -19q-43 -18 -58 -49zM129 564v-7v7zM349 564v-7v7z" />
    <glyph glyph-name="quotedblright" unicode="&#x201d;" horiz-adv-x="479" 
d="M131 690q38 0 62.5 -27.5t24.5 -70.5q0 -58 -42 -107t-104 -49q-10 0 -15.5 6.5t-5.5 14.5q0 13 13 19q43 18 58 49q-34 3 -54.5 28t-20.5 56q0 32 24 56.5t60 24.5zM351 690q38 0 62.5 -27.5t24.5 -70.5q0 -58 -42 -107t-104 -49q-10 0 -15.5 6.5t-5.5 14.5q0 13 13 19
q43 18 58 49q-34 3 -54.5 28t-20.5 56q0 32 24 56.5t60 24.5zM130 562v7v-7zM350 562v7v-7z" />
    <glyph glyph-name="quotedblbase" unicode="&#x201e;" horiz-adv-x="479" 
d="M131 147q38 0 62.5 -27.5t24.5 -70.5q0 -58 -42 -107t-104 -49q-10 0 -15.5 6.5t-5.5 14.5q0 13 13 19q43 18 58 49q-34 3 -54.5 28t-20.5 56q0 32 24 56.5t60 24.5zM351 147q38 0 62.5 -27.5t24.5 -70.5q0 -58 -42 -107t-104 -49q-10 0 -15.5 6.5t-5.5 14.5q0 13 13 19
q43 18 58 49q-34 3 -54.5 28t-20.5 56q0 32 24 56.5t60 24.5zM130 19v7v-7zM350 19v7v-7z" />
    <glyph glyph-name="bullet" unicode="&#x2022;" horiz-adv-x="522" 
d="M262 122q-59 0 -100.5 41.5t-41.5 100.5q0 58 41.5 99.5t100.5 41.5q58 0 99 -41.5t41 -99.5q0 -59 -41 -100.5t-99 -41.5z" />
    <glyph glyph-name="ellipsis" unicode="&#x2026;" horiz-adv-x="842" 
d="M158 -10q-34 0 -58.5 24t-24.5 59q0 34 24.5 58t58.5 24t58 -24t24 -58t-24 -58.5t-58 -24.5zM407 -10q-35 0 -59 24t-24 59q0 34 24.5 58t58.5 24t58 -24t24 -58t-24 -58.5t-58 -24.5zM573 72q0 34 24.5 58.5t58.5 24.5t58 -24.5t24 -58.5t-24 -58t-58 -24t-58.5 24
t-24.5 58z" />
    <glyph glyph-name="perthousand" unicode="&#x2030;" horiz-adv-x="1214" 
d="M146 90l424 583q16 22 41.5 26.5t45.5 -9.5q22 -15 27 -41t-11 -48l-424 -583q-16 -22 -42 -26.5t-47 10.5q-21 14 -25 40t11 48zM197 349q-77 0 -126 50t-49 124q0 76 49 125.5t126 49.5q78 0 127 -50t49 -125q0 -74 -49.5 -124t-126.5 -50zM197 600q-26 0 -42.5 -23.5
t-16.5 -53.5q0 -31 16.5 -54t42.5 -23t43 24t17 53q0 30 -17 53.5t-43 23.5zM627 -10q-77 0 -126 50t-49 124q0 76 49 125.5t126 49.5t125.5 -50t48.5 -125q0 -74 -49 -124t-125 -50zM1017 -10q-77 0 -126 50t-49 124q0 76 49 125.5t126 49.5t125.5 -50t48.5 -125
q0 -74 -49 -124t-125 -50zM627 241q-26 0 -42.5 -23.5t-16.5 -53.5q0 -29 16.5 -52t42.5 -23t43 23.5t17 51.5q0 30 -17 53.5t-43 23.5zM1017 241q-26 0 -42.5 -23.5t-16.5 -53.5q0 -29 16.5 -52t42.5 -23t43 23.5t17 51.5q0 30 -17 53.5t-43 23.5z" />
    <glyph glyph-name="guilsinglleft" unicode="&#x2039;" horiz-adv-x="361" 
d="M190 264l90 -110q21 -26 21 -50q0 -25 -18 -41.5t-40 -16.5q-33 0 -55 28l-100 123q-28 36 -28 67q0 33 28 68l100 122q22 28 55 28q23 0 40.5 -17t17.5 -41t-21 -50z" />
    <glyph glyph-name="guilsinglright" unicode="&#x203a;" horiz-adv-x="361" 
d="M273 332q28 -35 28 -68q0 -31 -28 -67l-100 -123q-22 -28 -55 -28q-22 0 -40 16.5t-18 41.5q0 24 21 50l90 110l-90 110q-21 26 -21 50t17.5 41t40.5 17q33 0 55 -28z" />
    <glyph glyph-name="fraction" unicode="&#x2044;" 
 />
    <glyph glyph-name="Euro" unicode="&#x20ac;" horiz-adv-x="771" 
d="M625 187q28 0 48.5 -20t20.5 -50q0 -25 -19 -48q-31 -39 -89 -59t-128 -20q-106 0 -183 58t-110 158h-54q-24 0 -41 17.5t-17 40.5q0 24 17 41t41 17h33q-1 8 -1 24q0 15 1 23h-33q-24 0 -41 17.5t-17 40.5q0 24 17 41t41 17h54q34 99 111.5 157t183.5 58q66 0 123 -20.5
t88 -58.5q20 -25 20 -48q0 -30 -21 -50t-49 -20q-21 0 -44 15q-35 23 -60.5 32.5t-58.5 9.5q-78 0 -123 -75h130q24 0 41 -17t17 -41t-17 -41t-41 -17h-162q-1 -8 -1 -24q0 -15 1 -23h162q24 0 41 -17t17 -41t-17 -41t-41 -17h-129q45 -76 126 -76q56 0 119 42q23 15 44 15z
" />
    <glyph glyph-name="minus" unicode="&#x2212;" 
d="M483 200q27 0 45.5 18.5t18.5 45.5q0 26 -18.5 45t-45.5 19h-391q-27 0 -45.5 -19t-18.5 -45q0 -27 18.5 -45.5t45.5 -18.5h391z" />
    <glyph glyph-name="notequal" unicode="&#x2260;" 
d="M474 220q33 0 54.5 -18t21.5 -46q0 -29 -21.5 -46.5t-54.5 -17.5h-167l-12 -45q-7 -26 -24.5 -42t-40.5 -16q-27 0 -43 19t-16 48q0 9 4 27l2 9h-73q-33 0 -54.5 17.5t-21.5 46.5q0 28 21.5 46t54.5 18h108l24 90h-132q-33 0 -54.5 17.5t-21.5 46.5q0 28 21.5 46t54.5 18
h166l11 41q8 27 24.5 43t38.5 16q28 0 44.5 -19.5t16.5 -48.5q0 -8 -4 -26l-2 -6h75q33 0 54.5 -18t21.5 -46q0 -29 -21.5 -46.5t-54.5 -17.5h-109l-24 -90h133z" />
    <hkern u1="F" u2="q" k="20" />
    <hkern u1="F" u2="o" k="20" />
    <hkern u1="F" u2="g" k="20" />
    <hkern u1="F" u2="e" k="20" />
    <hkern u1="F" u2="d" k="20" />
    <hkern u1="F" u2="c" k="20" />
    <hkern u1="F" u2="a" k="20" />
    <hkern g1="A"
	g2="V,W"
	k="40" />
    <hkern g1="T"
	g2="a,c,d,e,g,o,q"
	k="50" />
    <hkern g1="V,W"
	g2="a,c,d,e,g,o,q"
	k="30" />
    <hkern g1="V,W"
	g2="A"
	k="40" />
    <hkern g1="Y"
	g2="a,c,d,e,g,o,q"
	k="30" />
    <hkern g1="braceleft"
	g2="h,k,l"
	k="-20" />
    <hkern g1="bracketleft"
	g2="h,k,l"
	k="-30" />
    <hkern g1="parenleft"
	g2="h,k,l"
	k="-40" />
    <hkern g1="f"
	g2="i,m,n"
	k="30" />
    <hkern g1="f"
	g2="a,c,d,e,g,o,q"
	k="40" />
    <hkern g1="f"
	g2="p,r"
	k="40" />
    <hkern g1="q"
	g2="j"
	k="-40" />
    <hkern g1="r"
	g2="i,m,n"
	k="13" />
    <hkern g1="r"
	g2="a,c,d,e,g,o,q"
	k="40" />
    <hkern g1="r"
	g2="p,r"
	k="40" />
    <hkern g1="r"
	g2="f"
	k="-13" />
    <hkern g1="r"
	g2="s"
	k="20" />
    <hkern g1="r"
	g2="t"
	k="-10" />
    <hkern g1="r"
	g2="v,w,y"
	k="-5" />
    <hkern g1="r"
	g2="x"
	k="-6" />
    <hkern g1="r"
	g2="z"
	k="8" />
    <hkern g1="t"
	g2="a,c,d,e,g,o,q"
	k="15" />
    <hkern g1="t"
	g2="v,w,y"
	k="-20" />
  </font>
</defs></svg>
